<svg width="51" height="52" viewBox="0 0 51 52" fill="none" xmlns="http://www.w3.org/2000/svg">
<path d="M50.0199 1.29852L32.8629 50.3184L23.059 28.2595L1 18.4555L50.0199 1.29852Z" fill="#EAF5FB" stroke="#2D9CDB" stroke-width="1.5" stroke-linecap="round" stroke-linejoin="round"/>
<path d="M50.02 1.29785L23.0591 28.2588" stroke="#2D9CDB" stroke-width="1.5" stroke-linecap="round" stroke-linejoin="round"/>
</svg>
