<svg width="140" height="90" viewBox="0 0 140 90" fill="none" xmlns="http://www.w3.org/2000/svg">
<g clip-path="url(#clip0_219_1518)">
<path d="M103.424 35.5753V40.1756H37.8899V34.1226C37.9373 33.6075 38.1034 33.1103 38.3753 32.6698C38.8265 31.9685 39.5159 31.4528 40.3171 31.2171H98.9578C99.5659 31.0634 100.203 31.0681 100.809 31.2309C101.415 31.3936 101.968 31.7089 102.416 32.1464C102.865 32.584 103.193 33.1291 103.369 33.7295C103.546 34.33 103.565 34.9656 103.424 35.5753Z" fill="#D9E5FF"/>
<path d="M77.8122 19.0481L76.4918 31.8322L74.7248 32.8007L75.4432 25.8566C75.522 25.0906 75.2927 24.3247 74.8057 23.7273C74.3187 23.1298 73.6139 22.7496 72.8462 22.6702L70.4966 22.4281C69.9192 21.5752 69.663 20.5459 69.7733 19.5226L52.9384 17.8084C52.8362 18.8241 52.377 19.771 51.6423 20.4814L44.5063 19.7454L44.9287 15.668C44.9675 15.2884 45.0809 14.92 45.2625 14.5841C45.444 14.2482 45.6901 13.9512 45.9867 13.7102C46.2834 13.4691 46.6247 13.2888 46.9912 13.1793C47.3577 13.0699 47.7423 13.0336 48.1229 13.0725L75.2151 15.8617C75.9829 15.9411 76.6877 16.3213 77.1746 16.9188C77.6616 17.5162 77.8909 18.2821 77.8122 19.0481Z" fill="#56CA54"/>
<path d="M75.4433 25.8469L74.7249 32.791L72.6763 33.9048L73.6472 24.3167C73.0118 24.2507 72.3987 24.0465 71.851 23.7186C71.3033 23.3906 70.8344 22.9468 70.4773 22.4185L72.8268 22.6606C73.2087 22.6975 73.5795 22.8094 73.9179 22.9897C74.2564 23.17 74.5557 23.4152 74.7989 23.7113C75.042 24.0074 75.2241 24.3485 75.3347 24.715C75.4453 25.0815 75.4822 25.4662 75.4433 25.8469Z" fill="#B6FA4C"/>
<path d="M73.6665 24.3166L72.6957 33.9047L70.0791 35.3235L70.5112 31.1203C70.0002 31.0719 69.5039 30.9229 69.0511 30.682C68.5982 30.4411 68.1976 30.1131 67.8726 29.7168C67.5476 29.3205 67.3046 28.8639 67.1575 28.3734C67.0105 27.8829 66.9624 27.3681 67.016 26.8589L47.8364 24.888L48.1617 21.7114C49.3116 21.8293 50.4615 21.4878 51.3595 20.7617C52.2576 20.0356 52.8305 18.9841 52.9529 17.8374L69.783 19.5662C69.6727 20.5895 69.9289 21.6187 70.5063 22.4716C70.8679 22.9889 71.3377 23.4218 71.8833 23.7403C72.4289 24.0589 73.0373 24.2555 73.6665 24.3166Z" fill="#45A142"/>
<path d="M51.6425 20.4815C51.1846 20.927 50.6342 21.2667 50.0303 21.4767C49.4264 21.6867 48.7836 21.7619 48.1473 21.697L47.8221 24.8736L45.3512 48.7421L41.2881 50.9503L43.6667 27.9583L44.5114 19.7261L51.6425 20.4815Z" fill="#63DF62"/>
<path d="M70.4919 31.1204L70.0599 35.3236L67.39 36.7763C67.2599 36.3049 67.0759 35.8499 66.8414 35.4205C64.8997 31.9 60.2104 30.7523 56.322 32.8636C52.4337 34.9749 50.8511 39.5414 52.7735 43.0619C53.0048 43.4939 53.2867 43.897 53.6133 44.2628L45.3608 48.7469L47.8317 24.8784L67.0162 26.859C66.9625 27.3667 67.0099 27.88 67.1557 28.3694C67.3015 28.8587 67.5429 29.3145 67.8659 29.7106C68.1889 30.1066 68.5871 30.435 69.0378 30.6769C69.4885 30.9189 69.9827 31.0696 70.4919 31.1204Z" fill="#4CAB4B"/>
<path d="M66.8413 35.4155C67.0757 35.845 67.2598 36.2999 67.3898 36.7714L53.6131 44.2579C53.2866 43.8921 53.0047 43.489 52.7733 43.0569C50.8316 39.5365 52.4384 34.97 56.3218 32.8587C60.2053 30.7474 64.9189 31.895 66.8413 35.4155Z" fill="#56CA54"/>
<path d="M101.73 26.9218L94.4433 37.5123H92.4336L96.3899 31.7594C96.8268 31.1243 96.9929 30.3421 96.8518 29.5847C96.7107 28.8274 96.2739 28.157 95.6375 27.7208L93.7152 26.3746C93.6119 25.3484 93.8768 24.3189 94.4627 23.4691L80.4821 13.9682C79.9014 14.8106 79.0422 15.4226 78.055 15.697L72.1423 11.6487L74.4676 8.25895C74.9041 7.62327 75.5758 7.18657 76.335 7.04491C77.0943 6.90324 77.8788 7.06821 78.5161 7.50353L100.997 22.8832C101.63 23.3223 102.063 23.9942 102.2 24.7513C102.338 25.5084 102.169 26.289 101.73 26.9218Z" fill="#56CA54"/>
<path d="M96.3899 31.7644L92.4336 37.5124H90.0986L95.5647 29.5659C95.0414 29.2011 94.6046 28.7263 94.285 28.175C93.9655 27.6237 93.771 27.0092 93.7151 26.3748L95.6569 27.7064C95.9732 27.924 96.2432 28.2018 96.4515 28.5239C96.6597 28.846 96.8019 29.206 96.8701 29.5832C96.9382 29.9604 96.9309 30.3473 96.8485 30.7217C96.766 31.096 96.6102 31.4504 96.3899 31.7644Z" fill="#63DF62"/>
<path d="M95.5647 29.5707L90.0986 37.5123H87.1229L89.5161 34.0306C89.0922 33.7412 88.7296 33.3713 88.4491 32.9419C88.1687 32.5126 87.9758 32.0324 87.8816 31.5286C87.7873 31.0249 87.7936 30.5076 87.9 30.0063C88.0064 29.5049 88.2108 29.0295 88.5016 28.607L72.5986 17.7309L74.4093 15.0966C75.3647 15.75 76.5411 15.9982 77.6799 15.7867C78.8187 15.5751 79.8266 14.921 80.4821 13.9683L94.4336 23.5128C93.8476 24.3625 93.5827 25.392 93.686 26.4182C93.7507 27.0483 93.9523 27.6567 94.2768 28.2012C94.6012 28.7456 95.0407 29.213 95.5647 29.5707Z" fill="#45A242"/>
<path d="M78.0597 15.7214C77.4442 15.8938 76.7984 15.9294 76.1676 15.8257C75.5368 15.7219 74.9366 15.4813 74.4092 15.1209L72.5985 17.7552L59.0063 37.5415H54.3752L67.482 18.4816L72.1617 11.6731L78.0597 15.7214Z" fill="#63DF62"/>
<path d="M89.5162 34.0355L87.123 37.5124H84.0841C84.1955 37.0362 84.2509 36.5486 84.2492 36.0596C84.2492 32.0501 80.6618 28.7959 76.2395 28.7959C71.8172 28.7959 68.2298 32.0501 68.2298 36.0596C68.228 36.5486 68.2834 37.0362 68.3948 37.5124H58.9871L72.5793 17.7261L88.4822 28.6071C88.1916 29.0309 87.9878 29.5077 87.8825 30.0103C87.7772 30.5128 87.7724 31.0312 87.8685 31.5356C87.9646 32.04 88.1596 32.5205 88.4424 32.9495C88.7251 33.3785 89.09 33.7476 89.5162 34.0355Z" fill="#4CAB4B"/>
<path d="M84.2492 36.0596C84.2509 36.5486 84.1955 37.0361 84.0841 37.5123H68.3948C68.2834 37.0361 68.228 36.5486 68.2298 36.0596C68.2298 32.05 71.8172 28.7959 76.2395 28.7959C80.6618 28.7959 84.2492 32.0549 84.2492 36.0596Z" fill="#63DF62"/>
<path d="M106.337 45.9866H99.0549V75.5256H106.337V45.9866Z" fill="#C6E6FE"/>
<path d="M99.055 45.9866H34.9773V75.5256H99.055V45.9866Z" fill="#D9E5FF"/>
<path d="M106.337 41.8707V45.9868H99.055V41.8707C99.055 40.7148 98.5947 39.6063 97.7753 38.7889C96.956 37.9716 95.8447 37.5125 94.686 37.5125H101.968C103.126 37.5125 104.238 37.9716 105.057 38.7889C105.876 39.6063 106.337 40.7148 106.337 41.8707Z" fill="#21408E"/>
<path d="M99.055 41.8707V45.9868H34.9773V41.8707C34.9773 40.7148 35.4376 39.6063 36.2569 38.7889C37.0763 37.9716 38.1875 37.5125 39.3462 37.5125H94.686C95.8447 37.5125 96.956 37.9716 97.7753 38.7889C98.5947 39.6063 99.055 40.7148 99.055 41.8707Z" fill="#4565B4"/>
<path d="M106.337 75.5256V79.6417C106.337 80.7976 105.876 81.9061 105.057 82.7235C104.238 83.5408 103.126 83.9999 101.968 83.9999H39.3462C38.1875 83.9999 37.0763 83.5408 36.2569 82.7235C35.4376 81.9061 34.9773 80.7976 34.9773 79.6417V76.252C34.9773 77.4079 35.4376 78.5164 36.2569 79.3337C37.0763 80.1511 38.1875 80.6102 39.3462 80.6102H98.9482C99.0186 80.2922 99.0544 79.9675 99.055 79.6417V75.5256H106.337Z" fill="#21408E"/>
<path d="M99.055 75.5256V79.6417C99.0544 79.9675 99.0185 80.2922 98.9482 80.6102H39.3462C38.1875 80.6102 37.0763 80.1511 36.2569 79.3337C35.4376 78.5164 34.9773 77.4079 34.9773 76.252V75.5256H99.055Z" fill="#4565B4"/>
<path d="M109.977 54.9452V66.5671C109.977 66.9524 109.824 67.3219 109.551 67.5943C109.278 67.8668 108.907 68.0198 108.521 68.0198H94.4434C92.5122 68.0198 90.6601 67.2545 89.2946 65.8923C87.929 64.5301 87.1619 62.6826 87.1619 60.7561C87.1619 60.5527 87.1619 60.3494 87.191 60.1508C87.3431 61.9655 88.173 63.657 89.5162 64.8902C90.8594 66.1233 92.6179 66.8083 94.4434 66.8092H102.672C102.689 66.7298 102.698 66.6485 102.696 66.5671V54.9452C102.696 54.5599 102.542 54.1904 102.269 53.9179C101.996 53.6455 101.626 53.4924 101.24 53.4924H108.521C108.907 53.4924 109.278 53.6455 109.551 53.9179C109.824 54.1904 109.977 54.5599 109.977 54.9452Z" fill="#21408E"/>
<path d="M102.696 54.9452V66.5671C102.698 66.6485 102.689 66.7298 102.672 66.8092H94.4433C92.6179 66.8083 90.8593 66.1233 89.5161 64.8902C88.1729 63.657 87.343 61.9655 87.1909 60.1508C87.343 58.3361 88.1729 56.6447 89.5161 55.4115C90.8593 54.1783 92.6179 53.4934 94.4433 53.4924H101.239C101.626 53.4924 101.996 53.6455 102.269 53.9179C102.542 54.1904 102.696 54.5599 102.696 54.9452Z" fill="#4565B4"/>
<path d="M94.5646 64.388C96.5083 64.388 98.084 62.8162 98.084 60.8772C98.084 58.9383 96.5083 57.3665 94.5646 57.3665C92.6209 57.3665 91.0452 58.9383 91.0452 60.8772C91.0452 62.8162 92.6209 64.388 94.5646 64.388Z" fill="#F2F2F2"/>
</g>
<path d="M48.4091 83.2616C58.5761 83.2616 66.8182 75.1741 66.8182 65.1977C66.8182 55.2213 58.5761 47.1338 48.4091 47.1338C38.242 47.1338 30 55.2213 30 65.1977C30 75.1741 38.242 83.2616 48.4091 83.2616Z" fill="#FCB92B"/>
<path d="M48.4087 78.0202C55.6229 78.0202 61.4712 72.2797 61.4712 65.1986C61.4712 58.1174 55.6229 52.377 48.4087 52.377C41.1945 52.377 35.3462 58.1174 35.3462 65.1986C35.3462 72.2797 41.1945 78.0202 48.4087 78.0202Z" fill="#FDE994"/>
<path d="M54.2831 56.2922L53.0761 58.0968H50.5816C50.8389 58.3988 51.0527 58.736 51.2164 59.0984C51.3947 59.5064 51.515 59.9377 51.574 60.3796H54.2563L53.0493 62.1842H51.5472C51.4601 62.7588 51.2692 63.3124 50.9839 63.8174C50.7055 64.3218 50.3319 64.7662 49.8842 65.1257C49.3867 65.5024 48.8266 65.7866 48.2302 65.9648C47.5352 66.1797 46.8111 66.2833 46.0844 66.2716L53.389 74.1216H50.1971L43.1339 66.4611V64.6565H44.9221C45.4385 64.6587 45.9538 64.6073 46.4599 64.5031C46.9019 64.41 47.3271 64.2487 47.7205 64.0249C48.066 63.8316 48.37 63.5709 48.6146 63.2579C48.8664 62.9493 49.0412 62.5842 49.1242 62.1932H42.5259L43.7329 60.3887H49.0974C48.9185 59.7082 48.4986 59.1176 47.9172 58.7284C47.1719 58.2759 46.3093 58.0591 45.4406 58.1059H42.5081L43.7151 56.3013L54.2831 56.2922Z" fill="#FCB92B"/>
<defs>
<clipPath id="clip0_219_1518">
<rect width="75" height="77" fill="white" transform="translate(34.9773 7)"/>
</clipPath>
</defs>
</svg>
