<svg width="222" height="201" viewBox="0 0 222 201" fill="none" xmlns="http://www.w3.org/2000/svg">
<g clip-path="url(#clip0_414_3188)">
<rect width="222" height="201" rx="6" fill="#D8E3FF"/>
<path d="M196.239 58.1037C195.829 57.7393 195.497 57.2965 195.262 56.8015C195.027 56.3064 194.893 55.7692 194.869 55.2217C194.849 54.8716 194.903 54.5212 195.029 54.1937C195.154 53.8663 195.348 53.5692 195.597 53.3223C195.846 53.0754 196.145 52.8843 196.473 52.7617C196.802 52.6391 197.153 52.5878 197.503 52.6112C198.978 52.6112 199.482 53.2929 200.347 54.2739C201.212 53.2818 201.717 52.6112 203.192 52.6112C203.542 52.5878 203.893 52.6391 204.221 52.7617C204.55 52.8843 204.849 53.0754 205.098 53.3223C205.347 53.5692 205.54 53.8663 205.666 54.1937C205.791 54.5212 205.846 54.8716 205.825 55.2217C205.801 55.7692 205.668 56.3064 205.433 56.8015C205.197 57.2965 204.865 57.7393 204.456 58.1037L200.347 62.2105L196.239 58.1037Z" fill="#A4C0FF"/>
<path d="M55.8108 192.455C55.2593 191.965 54.8113 191.369 54.4933 190.702C54.1753 190.036 53.9937 189.313 53.959 188.576C53.9286 188.102 53.9998 187.628 54.1679 187.184C54.3361 186.741 54.5972 186.338 54.9339 186.004C55.2705 185.669 55.6748 185.411 56.1196 185.246C56.5645 185.08 57.0395 185.012 57.513 185.045C59.5089 185.045 60.1909 185.971 61.3608 187.312C62.5306 185.971 63.2126 185.045 65.2086 185.045C65.682 185.012 66.157 185.08 66.6019 185.246C67.0467 185.411 67.451 185.669 67.7876 186.004C68.1243 186.338 68.3854 186.741 68.5536 187.184C68.7217 187.628 68.7929 188.102 68.7625 188.576C68.7278 189.313 68.5462 190.036 68.2282 190.702C67.9102 191.369 67.4622 191.965 66.9107 192.455L61.3663 197.998L55.8108 192.455Z" fill="#E0E0E0"/>
<path d="M68.3468 198.701C68.0129 198.398 67.7429 198.031 67.5525 197.621C67.3621 197.212 67.2552 196.769 67.238 196.318C67.2208 196.029 67.2654 195.74 67.3687 195.469C67.4721 195.199 67.6319 194.954 67.8375 194.75C68.0431 194.546 68.2898 194.388 68.5612 194.287C68.8325 194.185 69.1224 194.143 69.4114 194.162C70.6311 194.162 71.0747 194.717 71.7622 195.542C72.4774 194.728 72.8711 194.162 74.113 194.162C74.402 194.143 74.6918 194.185 74.9632 194.287C75.2346 194.388 75.4812 194.546 75.6868 194.75C75.8924 194.954 76.0522 195.199 76.1556 195.469C76.259 195.74 76.3036 196.029 76.2864 196.318C76.2692 196.769 76.1622 197.212 75.9719 197.621C75.7815 198.031 75.5114 198.398 75.1775 198.701L71.7844 202.077L68.3468 198.701Z" fill="#EBEBEB"/>
<path d="M53.6708 114.94C53.0129 114.939 52.3746 115.164 51.8633 115.578L48.4313 112.807C48.6371 112.409 48.7437 111.968 48.7418 111.521C48.7418 110.872 48.5208 110.242 48.1152 109.735C47.7096 109.228 47.1435 108.874 46.51 108.731C45.8765 108.588 45.2132 108.665 44.6293 108.949C44.0453 109.233 43.5754 109.707 43.2967 110.294C43.0181 110.88 42.9473 111.544 43.0961 112.176C43.2448 112.808 43.6042 113.37 44.1151 113.771C44.6261 114.172 45.2582 114.387 45.9076 114.381C46.557 114.375 47.185 114.148 47.6884 113.738L51.1204 116.509C50.9164 116.908 50.8101 117.349 50.8101 117.797C50.8101 118.245 50.9164 118.687 51.1204 119.086L47.6884 121.857C47.185 121.447 46.557 121.22 45.9076 121.214C45.2582 121.208 44.6261 121.423 44.1151 121.824C43.6042 122.225 43.2448 122.787 43.0961 123.419C42.9473 124.051 43.0181 124.715 43.2967 125.301C43.5754 125.887 44.0453 126.362 44.6293 126.646C45.2132 126.93 45.8765 127.007 46.51 126.864C47.1435 126.721 47.7096 126.367 48.1152 125.86C48.5208 125.353 48.7418 124.723 48.7418 124.074C48.7424 123.627 48.6359 123.186 48.4313 122.788L51.8633 120.017C52.2185 120.306 52.638 120.506 53.0865 120.6C53.535 120.693 53.9995 120.678 54.4407 120.554C54.882 120.431 55.2872 120.204 55.6222 119.891C55.9572 119.579 56.2123 119.191 56.3659 118.759C56.5195 118.328 56.5672 117.866 56.505 117.412C56.4428 116.958 56.2724 116.526 56.0083 116.152C55.7442 115.777 55.394 115.472 54.9872 115.261C54.5804 115.05 54.129 114.94 53.6708 114.94Z" fill="#8CB0FF"/>
<path d="M174.921 69.9698H161.963L148.901 219.28H161.858C164.818 219.226 167.656 218.09 169.835 216.087C172.015 214.083 173.384 211.351 173.684 208.406L184.845 80.8494C184.999 79.4645 184.856 78.0627 184.425 76.7375C183.994 75.4123 183.285 74.1942 182.346 73.1646C181.407 72.1349 180.258 71.3174 178.978 70.7664C177.698 70.2155 176.314 69.944 174.921 69.9698Z" fill="#263238"/>
<path d="M182.949 84.9342C182.977 84.656 183.105 84.3972 183.309 84.2057C183.512 84.0142 183.779 83.9029 184.058 83.8922C184.192 83.8899 184.324 83.916 184.447 83.9688C184.57 84.0215 184.68 84.0998 184.77 84.1983C184.86 84.2968 184.928 84.4134 184.97 84.5403C185.012 84.6671 185.026 84.8014 185.012 84.9342L184.136 94.9104C184.122 95.201 184 95.4759 183.794 95.681C183.588 95.8862 183.312 96.0067 183.021 96.0189C182.888 96.0204 182.756 95.9937 182.634 95.9406C182.512 95.8875 182.403 95.8092 182.313 95.7107C182.224 95.6123 182.156 95.496 182.115 95.3695C182.073 95.243 182.059 95.1092 182.073 94.9769L182.949 84.9342Z" fill="#407BFF"/>
<path opacity="0.3" d="M182.949 84.9342C182.977 84.656 183.105 84.3972 183.309 84.2057C183.512 84.0142 183.779 83.9029 184.058 83.8922C184.192 83.8899 184.324 83.916 184.447 83.9688C184.57 84.0215 184.68 84.0998 184.77 84.1983C184.86 84.2968 184.928 84.4134 184.97 84.5403C185.012 84.6671 185.026 84.8014 185.012 84.9342L184.136 94.9104C184.122 95.201 184 95.4759 183.794 95.681C183.588 95.8862 183.312 96.0067 183.021 96.0189C182.888 96.0204 182.756 95.9937 182.634 95.9406C182.512 95.8875 182.403 95.8092 182.313 95.7107C182.224 95.6123 182.156 95.496 182.115 95.3695C182.073 95.243 182.059 95.1092 182.073 94.9769L182.949 84.9342Z" fill="white"/>
<path d="M159.203 219.28H105.816C104.423 219.305 103.04 219.033 101.761 218.482C100.481 217.932 99.3339 217.114 98.3949 216.086C97.4559 215.057 96.747 213.84 96.3153 212.516C95.8836 211.192 95.739 209.791 95.8912 208.406L107.058 80.8495C107.354 77.9032 108.722 75.1682 110.902 73.1629C113.082 71.1576 115.922 70.0215 118.884 69.9699H172.271C173.663 69.9452 175.045 70.2171 176.324 70.7676C177.603 71.3182 178.75 72.1347 179.689 73.1629C180.628 74.1911 181.337 75.4074 181.769 76.7309C182.201 78.0543 182.346 79.4546 182.195 80.8385L171.029 208.406C170.728 211.351 169.359 214.083 167.18 216.087C165.001 218.09 162.163 219.227 159.203 219.28Z" fill="#407BFF"/>
<path d="M172.054 72.4749H158.193C157.742 72.4838 157.307 72.6436 156.957 72.929C156.607 73.2143 156.363 73.6087 156.264 74.049L156.17 74.4868C155.929 75.563 155.333 76.5273 154.479 77.2247C153.624 77.9222 152.56 78.3126 151.457 78.3332H138.25C137.206 78.3555 136.195 77.9634 135.438 77.2427C134.682 76.5219 134.242 75.531 134.214 74.4868V74.049C134.208 73.8364 134.161 73.6271 134.074 73.4329C133.987 73.2388 133.863 73.0636 133.709 72.9174C133.554 72.7712 133.372 72.6569 133.174 72.581C132.975 72.5051 132.763 72.469 132.551 72.4749H118.69C116.41 72.5172 114.225 73.3924 112.546 74.9353C110.868 76.4782 109.813 78.582 109.58 80.8494L98.3862 208.406C98.2687 209.473 98.3799 210.552 98.7123 211.573C99.0448 212.593 99.5909 213.531 100.314 214.324C101.038 215.117 101.922 215.746 102.908 216.171C103.894 216.596 104.959 216.805 106.032 216.786H159.424C161.705 216.744 163.891 215.868 165.569 214.324C167.248 212.78 168.302 210.675 168.534 208.406L179.7 80.8494C179.817 79.7832 179.705 78.7043 179.372 77.6847C179.039 76.665 178.493 75.7279 177.77 74.9356C177.047 74.1434 176.163 73.5142 175.177 73.0899C174.192 72.6656 173.127 72.456 172.054 72.4749Z" fill="#407BFF"/>
<path opacity="0.7" d="M172.054 72.4749H158.193C157.742 72.4838 157.307 72.6436 156.957 72.929C156.607 73.2143 156.363 73.6087 156.264 74.049L156.17 74.4868C155.929 75.563 155.333 76.5273 154.479 77.2247C153.624 77.9222 152.56 78.3126 151.457 78.3332H138.25C137.206 78.3555 136.195 77.9634 135.438 77.2427C134.682 76.5219 134.242 75.531 134.214 74.4868V74.049C134.208 73.8364 134.161 73.6271 134.074 73.4329C133.987 73.2388 133.863 73.0636 133.709 72.9174C133.554 72.7712 133.372 72.6569 133.174 72.581C132.975 72.5051 132.763 72.469 132.551 72.4749H118.69C116.41 72.5172 114.225 73.3924 112.546 74.9353C110.868 76.4782 109.813 78.582 109.58 80.8494L98.3862 208.406C98.2687 209.473 98.3799 210.552 98.7123 211.573C99.0448 212.593 99.5909 213.531 100.314 214.324C101.038 215.117 101.922 215.746 102.908 216.171C103.894 216.596 104.959 216.805 106.032 216.786H159.424C161.705 216.744 163.891 215.868 165.569 214.324C167.248 212.78 168.302 210.675 168.534 208.406L179.7 80.8494C179.817 79.7832 179.705 78.7043 179.372 77.6847C179.039 76.665 178.493 75.7279 177.77 74.9356C177.047 74.1434 176.163 73.5142 175.177 73.0899C174.192 72.6656 173.127 72.456 172.054 72.4749Z" fill="white"/>
<g opacity="0.2">
<path opacity="0.2" d="M141.643 74.6152C142.085 74.1918 142.13 73.5206 141.742 73.116C141.355 72.7114 140.682 72.7265 140.239 73.1499C139.797 73.5732 139.753 74.2444 140.14 74.649C140.528 75.0537 141.2 75.0385 141.643 74.6152Z" fill="black"/>
<path opacity="0.2" d="M149.616 72.8299H145.979C145.69 72.8351 145.414 72.9456 145.201 73.1406C144.989 73.3357 144.855 73.6017 144.826 73.8884C144.811 74.0234 144.826 74.1599 144.869 74.2887C144.911 74.4176 144.981 74.536 145.072 74.6361C145.164 74.7361 145.276 74.8156 145.401 74.8692C145.525 74.9228 145.66 74.9493 145.796 74.947H149.433C149.721 74.9406 149.997 74.8297 150.209 74.6349C150.421 74.4401 150.555 74.1748 150.586 73.8884C150.601 73.7533 150.587 73.6165 150.545 73.4872C150.503 73.3579 150.433 73.2391 150.341 73.1389C150.25 73.0386 150.137 72.9592 150.012 72.9059C149.887 72.8526 149.752 72.8266 149.616 72.8299Z" fill="black"/>
</g>
<path d="M115.585 78.3166H116.705L116.805 77.1915H115.685L115.585 78.3166Z" fill="#407BFF"/>
<path d="M117.925 77.1915L117.831 78.3166H118.951L119.05 77.1915L119.15 76.0719H118.025L117.925 77.1915Z" fill="#407BFF"/>
<path d="M120.37 74.9468L120.27 76.0719L120.17 77.1914L120.076 78.3165H121.196L121.295 77.1914L121.395 76.0719L121.49 74.9468H120.37Z" fill="#407BFF"/>
<path d="M168.644 75.0245L168.572 75.8448H168.018L167.874 77.5075H168.428L168.356 78.3333H173.296L173.584 75.0412L168.644 75.0245ZM170.624 77.4909H168.96L169.104 75.8282H170.768L170.624 77.4909Z" fill="#407BFF"/>
<g opacity="0.4">
<path opacity="0.4" d="M138.289 78.3331L101.436 215.323C102.773 216.286 104.383 216.799 106.032 216.786H108.915L146.162 78.3331H138.289Z" fill="white"/>
<path opacity="0.4" d="M172.054 72.475H158.193C157.742 72.4838 157.306 72.6436 156.957 72.929C156.607 73.2143 156.363 73.6087 156.264 74.049L156.17 74.4868C155.935 75.5345 155.365 76.4768 154.545 77.1702C153.725 77.8636 152.701 78.2701 151.629 78.3277L114.359 216.786H142.774L179.7 79.5248C179.582 77.5907 178.72 75.7771 177.295 74.4633C175.87 73.1494 173.992 72.437 172.054 72.475Z" fill="white"/>
</g>
<path d="M116.273 109.653L114.609 109.293C114.502 109.272 114.401 109.227 114.312 109.163C114.224 109.099 114.151 109.016 114.098 108.92C114.045 108.825 114.014 108.719 114.007 108.61C113.999 108.501 114.016 108.391 114.055 108.289L116.378 102.226L119.034 102.78L117.143 109.115C117.093 109.299 116.976 109.456 116.814 109.556C116.652 109.656 116.459 109.69 116.273 109.653Z" fill="#407BFF"/>
<path d="M122.715 101.894C122.606 101.87 122.502 101.825 122.41 101.761C122.318 101.697 122.24 101.616 122.179 101.522C122.119 101.427 122.078 101.322 122.059 101.212C122.039 101.102 122.042 100.989 122.066 100.879L122.288 99.8374C122.312 99.7274 122.357 99.6233 122.421 99.5309C122.486 99.4386 122.568 99.36 122.662 99.2997C122.757 99.2393 122.863 99.1984 122.974 99.1794C123.085 99.1604 123.199 99.1637 123.308 99.189C123.53 99.2368 123.723 99.3705 123.846 99.5607C123.968 99.7509 124.01 99.982 123.963 100.203L123.735 101.24C123.686 101.461 123.551 101.654 123.36 101.777C123.169 101.9 122.937 101.941 122.715 101.894Z" fill="#407BFF"/>
<path d="M121.074 96.7279C121.074 96.7279 114.753 96.0074 112.541 94.8767C107.341 92.2053 102.367 85.8316 101.314 85.6044C99.595 85.2275 97.2553 89.2956 96.0799 94.6883C94.9045 100.081 95.348 104.748 97.0668 105.119C98.1258 105.352 105.289 101.616 111.133 101.345C113.617 101.234 119.649 103.223 119.649 103.223L121.074 96.7279Z" fill="#407BFF"/>
<path opacity="0.3" d="M121.074 96.7279C121.074 96.7279 114.753 96.0074 112.541 94.8767C107.341 92.2053 102.367 85.8316 101.314 85.6044C99.595 85.2275 97.2553 89.2956 96.0799 94.6883C94.9045 100.081 95.348 104.748 97.0668 105.119C98.1258 105.352 105.289 101.616 111.133 101.345C113.617 101.234 119.649 103.223 119.649 103.223L121.074 96.7279Z" fill="white"/>
<path d="M102.301 96.0187C101.131 101.406 98.7855 105.474 97.0668 105.097C95.348 104.72 94.91 100.054 96.0799 94.6664C97.2497 89.2793 99.595 85.2057 101.314 85.5825C103.033 85.9594 103.476 90.6482 102.301 96.0187Z" fill="#407BFF"/>
<path opacity="0.4" d="M102.301 96.0187C101.131 101.406 98.7855 105.474 97.0668 105.097C95.348 104.72 94.91 100.054 96.0799 94.6664C97.2497 89.2793 99.595 85.2057 101.314 85.5825C103.033 85.9594 103.476 90.6482 102.301 96.0187Z" fill="black"/>
<path d="M120.048 96.0187L117.115 95.3813C116.926 95.3397 116.731 95.3374 116.541 95.3745C116.352 95.4116 116.171 95.4874 116.012 95.5971C115.853 95.7068 115.718 95.8481 115.616 96.0121C115.514 96.1762 115.447 96.3596 115.419 96.5508C115.313 97.2879 115.18 98.0472 115.014 98.8231C114.847 99.599 114.648 100.347 114.459 101.04C114.406 101.226 114.391 101.421 114.415 101.613C114.44 101.805 114.504 101.99 114.604 102.157C114.703 102.323 114.835 102.467 114.993 102.58C115.15 102.693 115.329 102.773 115.518 102.814L118.995 103.567C121.079 104.022 122.582 102.553 123.003 100.458C123.192 99.4785 122.988 98.4642 122.435 97.6337C121.882 96.8032 121.025 96.2232 120.048 96.0187Z" fill="#263238"/>
<path d="M99.2846 94.9379L99.1016 95.7858C99.0483 96.0228 99.081 96.271 99.1937 96.4862C99.3064 96.7014 99.4919 96.8696 99.717 96.9608L101.846 97.8476C102.012 97.2656 102.168 96.6615 102.301 96.0408C102.434 95.42 102.55 94.7993 102.644 94.2007L100.332 94.1231C100.09 94.115 99.8524 94.192 99.661 94.3409C99.4695 94.4897 99.3363 94.701 99.2846 94.9379Z" fill="#263238"/>
<path opacity="0.8" d="M99.2846 94.9379L99.1016 95.7858C99.0483 96.0228 99.081 96.271 99.1937 96.4862C99.3064 96.7014 99.4919 96.8696 99.717 96.9608L101.846 97.8476C102.012 97.2656 102.168 96.6615 102.301 96.0408C102.434 95.42 102.55 94.7993 102.644 94.2007L100.332 94.1231C100.09 94.115 99.8524 94.192 99.661 94.3409C99.4695 94.4897 99.3363 94.701 99.2846 94.9379Z" fill="white"/>
<path opacity="0.2" d="M100.892 95.7306C100.776 96.2848 100.648 96.7836 100.51 97.2935L101.846 97.8477C102.012 97.2658 102.168 96.6617 102.301 96.0409C102.434 95.4202 102.55 94.7995 102.644 94.2009L101.192 94.151C101.11 94.6572 101.011 95.1837 100.892 95.7306Z" fill="black"/>
<path d="M152.117 96.0632C152.647 96.2658 153.217 96.3399 153.781 96.2792C154.345 96.2185 154.886 96.0248 155.36 95.714C157.062 94.6055 160.256 96.0022 159.291 100.541C157.628 108.345 154.157 113.948 156.408 116.309C156.408 116.309 148.912 116.653 150.021 110.035C150.853 105.047 156.491 99.4385 155.133 98.3189C154.678 97.942 154.024 98.136 151.89 98.136L152.117 96.0632Z" fill="#263238"/>
<path d="M151.89 98.136C152.917 98.1021 153.944 98.2254 154.934 98.5018C155.283 97.4971 155.419 96.4306 155.333 95.3704C154.241 95.4957 153.164 95.7278 152.117 96.0632L151.89 98.136Z" fill="#407BFF"/>
<path d="M144.832 90.3767C144.832 90.3767 141.716 89.4899 143.773 87.4781C146.456 84.8565 150.271 89.7671 150.271 89.7671C150.271 89.7671 159.214 93.6744 151.834 102.736C151.834 102.736 149.167 107.503 148.613 105.646C148.058 103.789 151.762 98.5295 151.762 98.5295L151.54 93.8185L150.515 91.984L147.293 90.1439L144.832 90.3767Z" fill="#263238"/>
<path d="M132.473 116.919C132.262 116.573 131.984 116.273 131.657 116.035C131.329 115.796 130.958 115.625 130.564 115.53C130.17 115.435 129.761 115.419 129.361 115.483C128.961 115.546 128.577 115.687 128.232 115.899H128.187C127.217 116.492 126.186 117.152 125.166 117.761L122.088 119.607C120.647 120.453 119.198 121.275 117.742 122.073C117.658 120.967 117.64 119.857 117.686 118.748C117.725 117.451 117.819 116.126 117.919 114.802C118.019 113.477 118.152 112.119 118.263 110.806V110.773C118.291 110.403 118.185 110.036 117.964 109.739C117.744 109.441 117.424 109.233 117.062 109.152C116.7 109.071 116.322 109.123 115.996 109.299C115.669 109.474 115.417 109.761 115.285 110.107C114.792 111.443 114.404 112.762 114.016 114.115C113.628 115.467 113.334 116.83 113.073 118.238C112.789 119.7 112.633 121.183 112.608 122.672C112.586 123.609 112.707 124.543 112.968 125.443C113.206 126.248 113.667 126.968 114.299 127.521C114.777 127.926 115.349 128.206 115.962 128.336C116.497 128.44 117.046 128.44 117.581 128.336C117.709 128.308 117.835 128.269 117.958 128.22L118.141 128.148C119.322 127.66 120.497 127.172 121.639 126.618C122.781 126.064 123.924 125.51 125.038 124.928C126.152 124.346 127.256 123.719 128.365 123.071C129.474 122.422 130.505 121.774 131.597 121.02C132.232 120.572 132.674 119.901 132.837 119.141C132.999 118.381 132.869 117.588 132.473 116.919Z" fill="#CE7A63"/>
<path d="M135.173 112.873C137.042 116.636 134.353 119.901 129.424 125.133C126.85 123.046 125.051 120.155 124.317 116.924C124.317 116.924 130.017 112.224 135.173 112.873Z" fill="#407BFF"/>
<path opacity="0.2" d="M135.367 117.34C133.543 116.232 131.486 115.733 130.061 117.545C128.949 119.005 127.66 120.321 126.225 121.464C127.098 122.847 128.183 124.086 129.44 125.133C132.401 122.007 134.519 119.585 135.367 117.34Z" fill="black"/>
<path d="M116.877 103.778L118.141 104.615C118.377 104.768 118.572 104.977 118.71 105.222C118.848 105.467 118.925 105.742 118.934 106.023L119.034 108.689C119.05 109.213 118.942 109.734 118.719 110.209C118.495 110.684 118.162 111.099 117.747 111.421L117.221 111.826C115.003 110.579 113.567 107.619 113.567 107.619L113.057 106.821C112.947 106.66 112.871 106.479 112.832 106.289C112.793 106.098 112.793 105.902 112.831 105.711C112.868 105.52 112.943 105.339 113.052 105.177C113.16 105.016 113.299 104.877 113.462 104.77L115.025 103.739C115.305 103.566 115.628 103.478 115.957 103.485C116.285 103.492 116.605 103.594 116.877 103.778Z" fill="#CE7A63"/>
<path d="M130.843 216.786C133.715 207.918 135.678 198.07 133.726 190.881C145.591 156.042 140.241 145.9 140.241 145.9L126.119 140.751C126.119 140.751 124.101 172.126 123.491 187.306C123.153 195.792 121.706 206.827 120.037 216.792L130.843 216.786Z" fill="#263238"/>
<path opacity="0.5" d="M138.167 158.791L135.301 154.169L133.549 157.771C132.635 167.705 133.067 177.716 134.835 187.534C137.119 180.676 138.923 173.669 140.235 166.561L138.167 158.791Z" fill="black"/>
<path d="M139.52 216.786H150.226C151.335 207.569 151.335 197.654 148.064 191.026C153.054 154.562 145.846 145.634 145.846 145.634L130.999 143.284C130.999 143.284 135.029 174.465 137.341 189.468C138.533 197.238 139.21 207.32 139.52 216.786Z" fill="#263238"/>
<path d="M128.564 119.879C127.937 122.576 127.493 125.313 127.234 128.07C126.757 132.088 126.407 136.057 125.947 142.691L146.051 145.9C146.545 140.18 148.225 133.834 153.852 121.669C154.17 121.036 154.342 120.34 154.357 119.632C154.371 118.924 154.226 118.222 153.934 117.577C153.642 116.932 153.209 116.36 152.667 115.904C152.125 115.448 151.488 115.119 150.803 114.94C150.021 114.735 149.189 114.536 148.33 114.353C145.324 113.656 142.273 113.175 139.198 112.912C138.195 112.845 137.147 112.807 136.143 112.784C132.517 112.69 129.235 116.359 128.564 119.879Z" fill="#407BFF"/>
<path d="M149.311 103.95C148.053 106.76 146.229 111.986 147.826 114.247C147.826 114.247 145.109 113.388 138.627 116.104C137.302 113.383 138.7 112.779 138.7 112.779C142.154 112.529 142.636 110.113 142.581 107.791L149.311 103.95Z" fill="#CE7A63"/>
<path d="M139.986 115.567C140.334 115.695 140.651 115.896 140.915 116.157C141.179 116.418 141.384 116.733 141.516 117.08C141.626 117.332 141.789 117.558 141.993 117.743C142.197 117.928 142.438 118.068 142.699 118.153C142.961 118.238 143.238 118.267 143.512 118.238C143.786 118.209 144.05 118.122 144.288 117.983C145.952 117.046 148.047 115.711 149.095 114.525C148.552 114.112 148.032 113.669 147.537 113.2C147.537 113.2 141.3 114.624 139.986 115.567Z" fill="white"/>
<path d="M138.184 114.963C137.709 115.039 137.26 115.229 136.875 115.517C136.768 115.594 136.64 115.636 136.507 115.636C136.375 115.637 136.246 115.595 136.139 115.517C136.032 115.44 135.953 115.331 135.911 115.205C135.87 115.08 135.87 114.944 135.91 114.818C136.603 112.856 137.801 112.602 137.801 112.602C138.38 112.381 139.019 112.381 139.597 112.602C139.118 112.76 138.711 113.086 138.451 113.519C138.192 113.953 138.097 114.465 138.184 114.963Z" fill="white"/>
<path opacity="0.2" d="M146.573 105.518L142.603 107.791C142.621 108.347 142.588 108.903 142.503 109.453C143.8 109.453 145.83 108.389 146.273 107.12C146.471 106.609 146.573 106.066 146.573 105.518Z" fill="black"/>
<path d="M152.754 98.4573C151.091 103.057 150.537 105.03 147.448 106.876C142.841 109.647 137.535 106.959 137.762 102.043C137.973 97.6093 140.623 90.8366 145.757 90.044C146.855 89.8369 147.987 89.9268 149.038 90.3046C150.088 90.6823 151.019 91.3341 151.733 92.1924C152.446 93.0506 152.918 94.0841 153.097 95.1857C153.277 96.2873 153.159 97.4168 152.754 98.4573Z" fill="#CE7A63"/>
<path d="M146.573 98.2854C146.451 98.679 146.151 98.9505 145.896 98.8896C145.641 98.8286 145.536 98.4628 145.652 98.0693C145.769 97.6758 146.079 97.4098 146.334 97.4707C146.589 97.5317 146.695 97.8975 146.573 98.2854Z" fill="#263238"/>
<path d="M141.666 96.9775C141.544 97.3655 141.239 97.637 140.984 97.5761C140.729 97.5151 140.624 97.1493 140.746 96.7613C140.867 96.3734 141.172 96.0963 141.427 96.1572C141.683 96.2182 141.788 96.5729 141.666 96.9775Z" fill="#263238"/>
<path d="M141.533 96.2071L140.679 95.7139C140.679 95.7139 140.934 96.5729 141.533 96.2071Z" fill="#263238"/>
<path d="M143.091 97.7866C142.466 98.6004 141.74 99.3306 140.929 99.9592C141.089 100.149 141.29 100.3 141.516 100.401C141.743 100.503 141.989 100.553 142.237 100.547L143.091 97.7866Z" fill="#BA4D3C"/>
<path d="M148.064 96.0187C148.033 96.0159 148.002 96.006 147.975 95.9897C147.948 95.9733 147.926 95.951 147.909 95.9244C147.757 95.6762 147.546 95.47 147.294 95.3248C147.042 95.1795 146.758 95.0998 146.467 95.0931C146.437 95.0938 146.407 95.0885 146.379 95.0774C146.35 95.0663 146.325 95.0497 146.303 95.0285C146.281 95.0074 146.264 94.9821 146.252 94.9541C146.24 94.9262 146.234 94.8962 146.234 94.8659C146.238 94.801 146.266 94.7398 146.312 94.6939C146.358 94.6479 146.419 94.6204 146.484 94.6165C146.851 94.6229 147.211 94.7204 147.532 94.9004C147.852 95.0803 148.123 95.337 148.319 95.6473C148.34 95.6884 148.35 95.7345 148.348 95.7807C148.345 95.8269 148.329 95.8715 148.303 95.9097C148.277 95.9478 148.241 95.9782 148.199 95.9974C148.157 96.0166 148.11 96.0239 148.064 96.0187Z" fill="#263238"/>
<path d="M140.612 93.6854C140.585 93.6743 140.56 93.6577 140.539 93.6368C140.518 93.6159 140.501 93.5909 140.49 93.5635C140.471 93.504 140.476 93.4392 140.504 93.3832C140.532 93.3272 140.581 93.2844 140.64 93.2642C140.995 93.1149 141.38 93.0492 141.764 93.0723C142.149 93.0953 142.523 93.2065 142.858 93.3972C142.883 93.4147 142.904 93.4372 142.919 93.4632C142.935 93.4892 142.946 93.5181 142.95 93.5483C142.954 93.5785 142.952 93.6092 142.944 93.6385C142.935 93.6678 142.921 93.6951 142.902 93.7187C142.863 93.7692 142.807 93.8034 142.745 93.8147C142.682 93.8259 142.618 93.8135 142.564 93.7797C142.297 93.6303 141.998 93.5446 141.693 93.5292C141.387 93.5139 141.082 93.5692 140.801 93.691C140.77 93.7026 140.738 93.7081 140.706 93.7071C140.674 93.7062 140.642 93.6988 140.612 93.6854Z" fill="#263238"/>
<path d="M146.44 97.5207L145.591 97.0275C145.591 97.0275 145.841 97.8754 146.44 97.5207Z" fill="#263238"/>
<path d="M128.154 134.987H123.364C123.131 134.977 122.908 134.891 122.728 134.743C122.548 134.595 122.421 134.393 122.366 134.167L120.148 123.791C120.12 123.694 120.115 123.591 120.134 123.491C120.154 123.392 120.197 123.298 120.26 123.218C120.323 123.139 120.404 123.075 120.496 123.033C120.588 122.991 120.69 122.972 120.791 122.977H125.581C125.813 122.987 126.036 123.071 126.216 123.218C126.396 123.365 126.523 123.566 126.579 123.791L128.797 134.167C128.825 134.264 128.83 134.368 128.81 134.467C128.791 134.567 128.748 134.661 128.685 134.741C128.623 134.821 128.542 134.885 128.449 134.928C128.357 134.971 128.256 134.991 128.154 134.987Z" fill="#263238"/>
<path d="M127.6 134.987H122.81C122.577 134.977 122.354 134.891 122.174 134.743C121.994 134.595 121.867 134.393 121.812 134.167L119.594 123.791C119.565 123.694 119.561 123.591 119.58 123.491C119.6 123.392 119.643 123.298 119.705 123.218C119.768 123.139 119.849 123.075 119.942 123.033C120.034 122.991 120.135 122.972 120.237 122.977H125.027C125.259 122.987 125.482 123.071 125.662 123.218C125.842 123.365 125.969 123.566 126.025 123.791L128.243 134.167C128.271 134.264 128.276 134.368 128.256 134.467C128.237 134.567 128.194 134.661 128.131 134.741C128.068 134.821 127.987 134.885 127.895 134.928C127.803 134.971 127.702 134.991 127.6 134.987Z" fill="#263238"/>
<path opacity="0.2" d="M127.6 134.987H122.81C122.577 134.977 122.354 134.891 122.174 134.743C121.994 134.595 121.867 134.393 121.812 134.167L119.594 123.791C119.565 123.694 119.561 123.591 119.58 123.491C119.6 123.392 119.643 123.298 119.705 123.218C119.768 123.139 119.849 123.075 119.942 123.033C120.034 122.991 120.135 122.972 120.237 122.977H125.027C125.259 122.987 125.482 123.071 125.662 123.218C125.842 123.365 125.969 123.566 126.025 123.791L128.243 134.167C128.271 134.264 128.276 134.368 128.256 134.467C128.237 134.567 128.194 134.661 128.131 134.741C128.068 134.821 127.987 134.885 127.895 134.928C127.803 134.971 127.702 134.991 127.6 134.987Z" fill="white"/>
<path d="M125.881 128.874L127.367 128.547C127.642 128.486 127.927 128.491 128.199 128.563C128.47 128.634 128.721 128.769 128.931 128.957L130.916 130.741C131.305 131.095 131.604 131.535 131.79 132.026C131.976 132.517 132.043 133.046 131.986 133.568L131.908 134.222C129.485 134.937 126.364 133.928 126.364 133.928L125.432 133.74C125.24 133.706 125.057 133.635 124.893 133.531C124.729 133.426 124.588 133.29 124.477 133.13C124.366 132.97 124.288 132.79 124.247 132.599C124.207 132.409 124.204 132.213 124.24 132.022L124.589 130.176C124.658 129.858 124.816 129.567 125.045 129.336C125.274 129.105 125.564 128.945 125.881 128.874Z" fill="#CE7A63"/>
<path d="M151.435 118.083C150.622 118.006 149.811 118.254 149.181 118.774C148.551 119.293 148.154 120.041 148.075 120.854V120.959C148.019 121.513 147.947 122.19 147.875 122.816C147.803 123.442 147.715 124.091 147.62 124.728C147.432 126.008 147.204 127.272 146.949 128.525C146.694 129.777 146.395 131.007 146.035 132.21C145.741 133.175 145.403 134.106 145.042 135.015C144.595 135.033 144.147 135.005 143.706 134.931C142.274 134.716 140.859 134.403 139.47 133.995C138.167 133.585 136.853 133.108 135.539 132.609C134.225 132.11 132.9 131.573 131.608 131.057H131.575C131.227 130.913 130.839 130.901 130.483 131.024C130.127 131.147 129.829 131.396 129.645 131.724C129.461 132.053 129.404 132.437 129.485 132.804C129.566 133.172 129.779 133.497 130.083 133.718C131.303 134.616 132.534 135.38 133.804 136.178C135.073 136.977 136.387 137.658 137.757 138.318C139.333 139.008 140.966 139.565 142.636 139.981C143.539 140.23 144.471 140.364 145.408 140.38C146.036 140.387 146.661 140.295 147.26 140.108C148.1 139.851 148.85 139.361 149.422 138.695C149.522 138.571 149.611 138.439 149.688 138.301L149.744 138.196C150.461 136.876 151.083 135.508 151.607 134.1C152.112 132.728 152.541 131.329 152.893 129.91C153.253 128.508 153.531 127.095 153.758 125.676C153.863 124.961 153.958 124.251 154.041 123.536C154.124 122.821 154.185 122.129 154.224 121.32C154.266 120.525 153.999 119.744 153.48 119.141C152.96 118.538 152.227 118.159 151.435 118.083Z" fill="#CE7A63"/>
<path d="M152.361 115.633C155.787 118.055 155.953 121.68 154.102 128.619C151.623 129.86 145.602 128.292 145.602 128.292C145.602 128.292 147.498 117.517 152.361 115.633Z" fill="#407BFF"/>
<path d="M140.03 101.877C140.03 101.877 141.694 101.55 146.212 101.688C145.658 103.041 144.615 104.116 142.281 104.044C141.721 104.08 141.169 103.893 140.747 103.523C140.325 103.153 140.067 102.631 140.03 102.071C140.03 102.004 140.025 101.943 140.03 101.877Z" fill="#263238"/>
<path d="M143.39 102.986C142.495 102.91 141.599 103.117 140.829 103.579C141.254 103.871 141.759 104.028 142.276 104.027C143.169 104.106 144.064 103.898 144.832 103.434C144.411 103.136 143.906 102.979 143.39 102.986Z" fill="#BA4D3C"/>
<path d="M140.235 101.849C140.277 102.017 140.363 102.17 140.485 102.292C140.608 102.414 140.761 102.501 140.928 102.542C142.278 102.58 143.628 102.504 144.965 102.315C145.178 102.301 145.384 102.235 145.566 102.123C145.747 102.011 145.899 101.856 146.007 101.672C144.081 101.579 142.152 101.638 140.235 101.849Z" fill="white"/>
<path d="M145.796 89.7393C145.506 89.7836 145.219 89.8484 144.937 89.9333V90.1993C145.666 90.1895 146.393 90.2961 147.088 90.5152C150.925 91.6846 151.524 93.8406 150.237 97.0275C149.622 98.5461 149.289 101.766 149.999 102.37C150.182 102.525 150.736 102.503 151.457 102.37C151.934 101.262 152.389 99.9704 152.971 98.341C153.38 97.2754 153.498 96.1199 153.311 94.9937C153.125 93.8675 152.641 92.8115 151.91 91.9347C151.178 91.058 150.226 90.3922 149.152 90.0063C148.077 89.6203 146.919 89.5282 145.796 89.7393Z" fill="#263238"/>
<path d="M153.193 102.67C152.837 103.041 152.412 103.338 151.941 103.543C151.47 103.749 150.962 103.859 150.448 103.867C149.118 103.867 148.907 102.492 149.656 101.35C150.326 100.325 151.823 99.0892 152.982 99.649C154.141 100.209 154.113 101.722 153.193 102.67Z" fill="#CE7A63"/>
<g opacity="0.9">
<path opacity="0.9" d="M145.014 126.213C135.678 125.659 131.464 123.913 129.784 122.938C129.73 122.909 129.68 122.874 129.634 122.833C129.152 122.411 129.762 121.641 130.322 121.962C131.791 122.81 135.839 124.534 145.081 125.105C145.227 125.114 145.364 125.18 145.462 125.289C145.559 125.398 145.61 125.541 145.602 125.687C145.599 125.76 145.581 125.832 145.549 125.898C145.517 125.965 145.473 126.024 145.418 126.073C145.364 126.122 145.3 126.16 145.231 126.184C145.161 126.208 145.088 126.218 145.014 126.213Z" fill="white"/>
</g>
<g opacity="0.9">
<path opacity="0.9" d="M144.527 131.49C144.527 131.565 144.512 131.639 144.482 131.709C144.453 131.778 144.409 131.84 144.355 131.892C144.3 131.944 144.236 131.984 144.165 132.01C144.095 132.036 144.02 132.048 143.945 132.044C138.617 131.85 133.379 130.623 128.52 128.43C128.453 128.397 128.393 128.351 128.345 128.294C128.296 128.237 128.26 128.17 128.238 128.099C128.215 128.027 128.208 127.952 128.215 127.878C128.223 127.803 128.246 127.731 128.282 127.666C128.35 127.541 128.463 127.448 128.599 127.405C128.734 127.361 128.88 127.371 129.008 127.433C133.736 129.547 138.825 130.736 144 130.936C144.142 130.943 144.276 131.004 144.374 131.107C144.472 131.211 144.527 131.347 144.527 131.49Z" fill="white"/>
</g>
<g opacity="0.9">
<path opacity="0.9" d="M135.135 140.729C130.81 139.886 128.587 139.31 127.65 139.066C127.578 139.045 127.511 139.01 127.453 138.963C127.395 138.916 127.347 138.857 127.313 138.791C127.278 138.724 127.257 138.652 127.251 138.577C127.245 138.503 127.255 138.428 127.279 138.357C127.324 138.222 127.42 138.11 127.546 138.044C127.672 137.978 127.818 137.963 127.955 138.002C128.853 138.257 131.071 138.828 135.346 139.665C135.49 139.693 135.617 139.777 135.699 139.898C135.781 140.02 135.811 140.169 135.784 140.313C135.75 140.453 135.664 140.574 135.543 140.652C135.422 140.73 135.276 140.757 135.135 140.729Z" fill="white"/>
</g>
<path d="M145.004 91.5848C144.817 91.6636 144.607 91.6665 144.419 91.593C144.23 91.5195 144.078 91.3754 143.994 91.1913C143.919 91.0039 143.894 90.8 143.921 90.5999C143.948 90.3997 144.027 90.21 144.15 90.0496C144.398 89.7285 144.722 89.4735 145.092 89.3069C144.778 89.6794 144.559 90.1226 144.455 90.5982C144.466 91.0305 144.599 91.7233 145.004 91.5848Z" fill="#263238"/>
<path d="M149.633 102.897C149.632 102.948 149.62 102.998 149.598 103.044C149.576 103.09 149.545 103.13 149.506 103.163C149.467 103.196 149.422 103.221 149.373 103.235C149.324 103.249 149.273 103.253 149.223 103.246C149.121 103.224 149.028 103.174 148.953 103.101C148.879 103.029 148.826 102.937 148.801 102.836C148.76 102.631 148.76 102.42 148.801 102.215C148.835 101.743 148.949 101.28 149.139 100.846C149.331 100.409 149.679 100.059 150.115 99.8651C150.193 99.9575 150.243 100.07 150.259 100.19C150.274 100.31 150.255 100.432 150.204 100.541C150.09 100.736 149.96 100.921 149.816 101.096C149.649 101.343 149.54 101.626 149.499 101.921C149.458 102.217 149.485 102.519 149.577 102.803C149.622 102.814 149.589 102.891 149.633 102.897Z" fill="#263238"/>
<path d="M87.1646 138.052H47.6886C46.2329 138.052 44.8368 138.63 43.8074 139.659C42.778 140.688 42.1997 142.083 42.1997 143.539V173.534C42.1997 174.989 42.778 176.385 43.8074 177.414C44.8368 178.443 46.2329 179.021 47.6886 179.021H77.5119C77.8013 181.369 78.9395 183.531 80.7123 185.099C82.485 186.667 84.7699 187.533 87.1369 187.534C87.3531 187.534 87.5694 187.534 87.7856 187.501C86.2443 185.472 84.9857 182.512 84.1596 179.021H87.1813C88.637 179.021 90.0332 178.443 91.0625 177.414C92.0919 176.385 92.6702 174.989 92.6702 173.534V143.539C92.6702 142.817 92.5277 142.102 92.2508 141.435C91.9739 140.768 91.5681 140.163 91.0567 139.653C90.5452 139.143 89.9381 138.739 89.2703 138.465C88.6024 138.19 87.8869 138.05 87.1646 138.052Z" fill="#407BFF"/>
<path opacity="0.4" d="M87.1646 138.052H47.6886C46.2329 138.052 44.8368 138.63 43.8074 139.659C42.778 140.688 42.1997 142.083 42.1997 143.539V173.534C42.1997 174.989 42.778 176.385 43.8074 177.414C44.8368 178.443 46.2329 179.021 47.6886 179.021H77.5119C77.8013 181.369 78.9395 183.531 80.7123 185.099C82.485 186.667 84.7699 187.533 87.1369 187.534C87.3531 187.534 87.5694 187.534 87.7856 187.501C86.2443 185.472 84.9857 182.512 84.1596 179.021H87.1813C88.637 179.021 90.0332 178.443 91.0625 177.414C92.0919 176.385 92.6702 174.989 92.6702 173.534V143.539C92.6702 142.817 92.5277 142.102 92.2508 141.435C91.9739 140.768 91.5681 140.163 91.0567 139.653C90.5452 139.143 89.9381 138.739 89.2703 138.465C88.6024 138.19 87.8869 138.05 87.1646 138.052Z" fill="white"/>
<path d="M95.0713 150.799L98.1429 147.956L100.771 152.817C100.771 152.817 97.727 155.139 95.9251 153.709L95.0713 150.799Z" fill="#FF8B7B"/>
<path d="M95.0712 150.799L92.981 155.238L95.8474 157.611L98.3535 153.554L95.0712 150.799Z" fill="#FF8B7B"/>
<path d="M101.064 148.615L101.569 150.45C101.694 150.879 101.684 151.335 101.541 151.759C101.399 152.182 101.13 152.551 100.77 152.817L99.6615 153.554L96.5234 148.045L99.2125 147.368C99.4161 147.327 99.6261 147.326 99.8301 147.366C100.034 147.407 100.228 147.487 100.4 147.603C100.573 147.719 100.72 147.869 100.834 148.043C100.948 148.216 101.026 148.411 101.064 148.615Z" fill="#FF8B7B"/>
<path d="M95.0713 150.799C95.0713 150.799 96.1802 147.374 96.0027 146.327C95.9085 145.7 96.5572 145.8 97.0784 145.989C97.2793 146.057 97.4548 146.185 97.5815 146.355C97.7082 146.525 97.7803 146.73 97.788 146.942C97.8324 148.05 97.788 150.212 96.9397 150.35C96.3053 150.446 95.6802 150.597 95.0713 150.799Z" fill="#FF8B7B"/>
<path d="M98.6581 154.357C97.7963 153.394 96.6476 152.733 95.3814 152.473L94.45 152.279C93.8955 152.168 93.7902 152.279 93.7236 152.44L93.4575 152.855L92.9031 153.681C92.5371 154.235 92.1712 154.79 91.7942 155.344C91.0568 156.452 90.2861 157.489 89.5099 158.497C88.7831 159.462 87.9842 160.369 87.1203 161.213L86.893 161.424C86.6047 161.113 86.3385 160.786 86.0502 160.448C85.2389 159.423 84.482 158.355 83.7826 157.25C83.0673 156.142 80.7498 152.783 80.1177 151.575C79.8017 150.976 79.4912 150.367 79.1974 149.757L78.7704 148.843C78.6429 148.549 78.4877 148.205 78.399 147.984L78.338 147.839C77.8833 146.839 77.0512 146.06 76.0234 145.671C74.9957 145.283 73.8558 145.317 72.8529 145.766C71.8501 146.214 71.0657 147.042 70.6712 148.067C70.2768 149.092 70.3043 150.232 70.7477 151.237C70.9473 151.686 71.1026 152.007 71.3022 152.379L71.8566 153.443C72.2262 154.148 72.5959 154.841 72.9655 155.521C73.7528 156.89 76.2588 160.382 77.1792 161.695C78.1119 163.033 79.1325 164.306 80.2342 165.508C81.3933 166.787 82.6767 167.947 84.0653 168.972L84.2372 169.1C84.6636 169.409 85.1547 169.617 85.6735 169.708C86.1922 169.799 86.7249 169.771 87.2312 169.626C88.361 169.297 89.4143 168.747 90.3305 168.008C91.0304 167.453 91.6815 166.839 92.2766 166.173C93.3169 165.004 94.2642 163.755 95.1097 162.438C95.9248 161.18 96.64 159.894 97.3275 158.608C97.6546 157.954 97.9762 157.306 98.2756 156.641L98.7191 155.643L98.9354 155.139C99.0019 154.961 99.0352 154.767 98.6581 154.357Z" fill="#263238"/>
<path opacity="0.4" d="M78.1105 152.595L75.0611 154.751L74.1851 156.835C74.3348 157.112 74.4789 157.389 74.6342 157.666C75.4159 159.035 76.2975 160.365 77.1957 161.679C78.1284 163.016 79.1489 164.29 80.2506 165.492C80.8051 166.046 81.3595 166.6 81.9139 167.154C80.417 163.635 78.1105 152.595 78.1105 152.595Z" fill="black"/>
<path d="M50.8541 169.444C51.0925 174.986 50.2165 174.731 50.1943 179.021H77.2121C78.6814 165.935 77.9939 163.923 78.0216 155.239C78.0216 150.35 77.2731 145.362 72.4051 144.852C66.6875 144.295 60.9275 144.332 55.2175 144.963C54.3622 145.067 53.5362 145.341 52.7881 145.769C52.0401 146.196 51.385 146.769 50.8613 147.453C50.3376 148.137 49.9559 148.919 49.7385 149.752C49.5212 150.586 49.4726 151.454 49.5955 152.307C50.6878 159.695 50.0945 163.879 50.8541 169.444Z" fill="#263238"/>
<path opacity="0.9" d="M69.9385 144.647C66.3388 144.412 62.728 144.401 59.127 144.614C59.2046 145.722 60.0473 148.494 66.185 150.893C66.185 150.893 67.5544 147.923 68.7076 149.258C68.7076 149.258 69.6336 147.551 71.6184 150.694C71.6184 150.694 74.5791 147.524 69.9385 144.647Z" fill="white"/>
<path opacity="0.4" d="M55.3347 152.506C55.9279 157.644 52.6456 166.235 50.8992 170.386C50.8992 170.098 50.8992 169.782 50.8992 169.444C50.4223 165.974 50.4778 163.037 50.3447 159.534L55.3347 152.506Z" fill="black"/>
<path d="M61.777 134.815C61.868 138.185 61.2169 141.534 59.8698 144.625C59.8198 144.743 59.8073 144.873 59.8341 144.998C59.8609 145.123 59.9256 145.236 60.0195 145.323C62.2819 147.273 65.183 148.323 68.1697 148.272C71.8013 148.316 71.5906 147.163 70.7312 145.905C70.606 145.726 70.4433 145.577 70.2544 145.467C67.7705 143.993 67.6818 142.02 68.3804 140.829L61.777 134.815Z" fill="#FF8B7B"/>
<path opacity="0.2" d="M61.7821 134.815L68.38 140.828C68.1595 141.207 68.0321 141.633 68.008 142.07C67.9839 142.507 68.0639 142.944 68.2413 143.345C66.8492 143.388 65.4923 142.903 64.4434 141.987C62.7413 140.54 62.1647 138.833 61.7378 136.445C61.7711 135.924 61.7821 135.369 61.7821 134.815Z" fill="black"/>
<path d="M59.8144 131.689C60.1027 136.123 59.4762 136.832 61.7272 139.077C65.1148 142.452 70.6315 143.095 71.4132 138.606C72.1118 134.56 72.5221 127.239 68.1476 125.532C67.1836 125.148 66.1377 125.017 65.1089 125.15C64.0801 125.284 63.1023 125.677 62.268 126.294C61.4337 126.91 60.7705 127.729 60.3412 128.673C59.9119 129.618 59.7305 130.655 59.8144 131.689Z" fill="#FF8B7B"/>
<path d="M70.5813 136.478C70.5813 136.478 69.0234 135.984 64.6045 135.796C65.0758 137.381 66.0017 138.7 68.2638 138.772C70.5259 138.844 70.5813 136.478 70.5813 136.478Z" fill="#263238"/>
<path d="M67.2545 137.481C68.1442 137.467 69.0096 137.772 69.694 138.34C69.285 138.646 68.7788 138.794 68.2691 138.756C67.3778 138.774 66.5105 138.466 65.8296 137.891C66.2394 137.587 66.7456 137.441 67.2545 137.481Z" fill="#FF5652"/>
<path d="M70.382 136.406C70.2489 136.733 70.1103 137.065 69.6668 137.154C68.3585 137.092 67.059 136.907 65.7857 136.6C65.567 136.56 65.3624 136.464 65.1922 136.321C65.022 136.178 64.8921 135.993 64.8154 135.785C66.686 135.821 68.5494 136.029 70.382 136.406Z" fill="white"/>
<path d="M68.8462 132.338C69.3134 133.164 69.8938 133.922 70.5705 134.588C70.3957 134.759 70.1853 134.889 69.9544 134.97C69.7234 135.05 69.4776 135.079 69.2343 135.053L68.8462 132.338Z" fill="#FF5652"/>
<path d="M64.4716 130.425C64.4337 130.42 64.3986 130.403 64.3718 130.376C64.3509 130.355 64.3342 130.33 64.3229 130.303C64.3115 130.276 64.3057 130.247 64.3057 130.218C64.3057 130.188 64.3115 130.159 64.3229 130.132C64.3342 130.105 64.3509 130.08 64.3718 130.06C64.6016 129.79 64.8927 129.579 65.2207 129.445C65.5487 129.311 65.904 129.258 66.2569 129.289C66.3157 129.298 66.3686 129.33 66.404 129.378C66.4393 129.426 66.4542 129.485 66.4454 129.544C66.4366 129.603 66.4048 129.656 66.3569 129.691C66.3091 129.727 66.2492 129.741 66.1904 129.733C65.9099 129.711 65.6282 129.756 65.3688 129.865C65.1094 129.974 64.8798 130.144 64.6989 130.359C64.6712 130.39 64.6351 130.413 64.5949 130.425C64.5547 130.437 64.5119 130.437 64.4716 130.425Z" fill="#263238"/>
<path d="M71.8344 131.213C71.7982 131.219 71.761 131.216 71.7262 131.204C71.6914 131.193 71.6599 131.173 71.6348 131.146C71.4509 130.937 71.2196 130.774 70.9602 130.672C70.7008 130.57 70.4208 130.531 70.1433 130.559C70.0861 130.568 70.0273 130.555 69.9796 130.522C69.9319 130.489 69.8991 130.438 69.8883 130.381C69.8786 130.322 69.8923 130.262 69.9265 130.214C69.9607 130.165 70.0127 130.132 70.0713 130.121C70.421 130.082 70.7748 130.128 71.1036 130.253C71.4323 130.378 71.7265 130.58 71.9619 130.841C71.9829 130.862 71.9995 130.886 72.0109 130.914C72.0222 130.941 72.0281 130.97 72.0281 130.999C72.0281 131.029 72.0222 131.058 72.0109 131.085C71.9995 131.112 71.9829 131.136 71.9619 131.157C71.926 131.188 71.8815 131.207 71.8344 131.213Z" fill="#263238"/>
<path d="M42.6265 170.347C42.6362 170.557 42.6678 170.765 42.7208 170.968C43.2217 172.74 43.8728 174.466 44.6669 176.128C45.0698 177.007 45.4856 177.872 45.9144 178.721C46.4855 178.917 47.0848 179.018 47.6886 179.021H53.6709L53.0777 177.696C52.4179 176.25 51.808 174.797 51.2536 173.362C50.7918 172.198 50.4029 171.005 50.0893 169.793C50.1522 169.329 50.2467 168.869 50.372 168.418C50.5439 167.753 50.7768 167.033 51.0429 166.301C51.5974 164.843 52.2072 163.341 52.8726 161.867C53.5379 160.393 54.2753 158.88 55.0182 157.389C55.7612 155.898 56.5374 154.391 57.3081 152.983V152.933L57.3469 152.85C57.8498 151.869 57.9422 150.728 57.6037 149.679C57.2653 148.629 56.5237 147.758 55.5422 147.255C54.5606 146.752 53.4195 146.66 52.3699 146.998C51.3202 147.336 50.448 148.078 49.9451 149.059C49.1135 150.688 48.365 152.246 47.6109 153.858C46.8569 155.471 46.1749 157.101 45.5096 158.763C44.8443 160.426 44.2455 162.105 43.6911 163.907C43.4194 164.81 43.1754 165.741 42.9703 166.744C42.7153 167.887 42.598 169.055 42.621 170.225L42.6265 170.347Z" fill="#263238"/>
<path d="M57.8016 134.66C58.186 135.61 58.9173 136.379 59.8475 136.81C61.034 137.32 61.6882 136.162 61.4054 134.832C61.1559 133.64 60.23 131.933 59.0158 131.988C57.8016 132.044 57.297 133.44 57.8016 134.66Z" fill="#FF8B7B"/>
<path d="M65.5195 131.933C65.5195 132.315 65.6803 132.642 65.9409 132.659C66.2015 132.676 66.4177 132.376 66.4344 131.983C66.451 131.589 66.2736 131.273 66.0185 131.257C65.7635 131.24 65.5417 131.539 65.5195 131.933Z" fill="#2E353A"/>
<path d="M69.9048 132.188C69.9048 132.576 70.0711 132.903 70.3206 132.92C70.5701 132.936 70.7974 132.631 70.8252 132.243C70.8529 131.855 70.6588 131.534 70.4093 131.517C70.1598 131.501 69.927 131.8 69.9048 132.188Z" fill="#2E353A"/>
<path d="M82.5905 60.3094H43.1367C41.6819 60.3108 40.2872 60.8896 39.259 61.9184C38.2309 62.9472 37.6533 64.342 37.6533 65.7963V95.7914C37.6526 96.5117 37.7939 97.2251 38.0691 97.8907C38.3444 98.5564 38.7482 99.1613 39.2574 99.6709C39.7667 100.18 40.3714 100.585 41.037 100.861C41.7027 101.136 42.4162 101.278 43.1367 101.278H72.9489C73.2346 103.628 74.3709 105.791 76.143 107.361C77.9152 108.93 80.2008 109.797 82.5683 109.797C82.7901 109.797 83.0064 109.797 83.2226 109.764C81.6813 107.73 80.4171 104.776 79.5966 101.278H82.6183C84.074 101.278 85.4701 100.7 86.4995 99.6712C87.5289 98.6423 88.1072 97.2466 88.1072 95.7914V65.7963C88.1065 65.0736 87.9631 64.3582 87.6852 63.691C87.4074 63.0238 87.0006 62.418 86.4881 61.9083C85.9756 61.3985 85.3675 60.9949 84.6987 60.7206C84.0299 60.4462 83.3135 60.3065 82.5905 60.3094Z" fill="#407BFF"/>
<path opacity="0.4" d="M82.5905 60.3094H43.1367C41.6819 60.3108 40.2872 60.8896 39.259 61.9184C38.2309 62.9472 37.6533 64.342 37.6533 65.7963V95.7914C37.6526 96.5117 37.7939 97.2251 38.0691 97.8907C38.3444 98.5564 38.7482 99.1613 39.2574 99.6709C39.7667 100.18 40.3714 100.585 41.037 100.861C41.7027 101.136 42.4162 101.278 43.1367 101.278H72.9489C73.2346 103.628 74.3709 105.791 76.143 107.361C77.9152 108.93 80.2008 109.797 82.5683 109.797C82.7901 109.797 83.0064 109.797 83.2226 109.764C81.6813 107.73 80.4171 104.776 79.5966 101.278H82.6183C84.074 101.278 85.4701 100.7 86.4995 99.6712C87.5289 98.6423 88.1072 97.2466 88.1072 95.7914V65.7963C88.1065 65.0736 87.9631 64.3582 87.6852 63.691C87.4074 63.0238 87.0006 62.418 86.4881 61.9083C85.9756 61.3985 85.3675 60.9949 84.6987 60.7206C84.0299 60.4462 83.3135 60.3065 82.5905 60.3094Z" fill="white"/>
<path d="M72.9212 101.278C72.695 98.0566 72.695 94.823 72.9212 91.6014C73.265 85.926 71.5684 79.7906 70.2876 78.7431C68.4413 77.219 66.7226 75.7835 66.1127 77.7012C65.7579 78.8097 65.6525 80.6386 65.6747 82.6893C65.7301 87.6441 66.7836 93.8238 67.2826 96.6781C67.4655 97.6869 67.9257 101.284 67.9257 101.284L72.9212 101.278Z" fill="#407BFF"/>
<path d="M69.4724 78.987C69.4092 78.5796 69.2296 78.1992 68.9551 77.8914C68.6807 77.5836 68.3232 77.3617 67.9255 77.2523C66.5394 76.8809 64.1443 76.2768 61.9653 75.8889C59.3976 75.4718 56.8039 75.2347 54.2032 75.1794C52.5399 75.1129 50.9431 75.1794 49.6623 75.2349C49.5105 75.2468 49.3602 75.2727 49.2132 75.3125C48.9427 75.3891 48.6899 75.5183 48.4693 75.6927C48.2487 75.8671 48.0647 76.0832 47.9277 76.3288C47.7908 76.5743 47.7035 76.8444 47.6711 77.1236C47.6386 77.4029 47.6615 77.6858 47.7384 77.9562C51.0262 89.6893 51.7082 95.3037 51.8801 101.278H67.9255C68.674 95.8579 70.1433 91.4074 70.2763 88.2206C70.3906 85.1213 70.1205 82.0199 69.4724 78.987Z" fill="#407BFF"/>
<path opacity="0.8" d="M69.4724 78.987C69.4092 78.5796 69.2296 78.1992 68.9551 77.8914C68.6807 77.5836 68.3232 77.3617 67.9255 77.2523C66.5394 76.8809 64.1443 76.2768 61.9653 75.8889C59.3976 75.4718 56.8039 75.2347 54.2032 75.1794C52.5399 75.1129 50.9431 75.1794 49.6623 75.2349C49.5105 75.2468 49.3602 75.2727 49.2132 75.3125C48.9427 75.3891 48.6899 75.5183 48.4693 75.6927C48.2487 75.8671 48.0647 76.0832 47.9277 76.3288C47.7908 76.5743 47.7035 76.8444 47.6711 77.1236C47.6386 77.4029 47.6615 77.6858 47.7384 77.9562C51.0262 89.6893 51.7082 95.3037 51.8801 101.278H67.9255C68.674 95.8579 70.1433 91.4074 70.2763 88.2206C70.3906 85.1213 70.1205 82.0199 69.4724 78.987Z" fill="white"/>
<path d="M62.8804 73.1786C61.8269 74.603 61.0563 76.2934 62.7085 78.1667C63.0668 78.5576 63.2767 79.0616 63.3017 79.5911C63.3017 80.4391 62.8305 81.2538 60.0694 79.6355C56.0663 77.2855 56.4045 74.6474 56.4045 74.6474C58.5058 74.01 59.7644 69.5927 60.2523 67.0654L62.8804 73.1786Z" fill="#FFB573"/>
<path opacity="0.2" d="M60.474 70.8399C60.169 71.9151 61.3056 73.611 62.1706 74.3094C62.372 73.9198 62.6076 73.5489 62.8747 73.2009L61.3223 69.5707C60.9592 69.9342 60.671 70.3655 60.474 70.8399Z" fill="black"/>
<path d="M71.0082 59.8882C72.4164 61.6728 69.245 67.0489 68.9013 65.9238C68.3468 64.0948 67.5374 60.3815 67.5485 58.8573C67.5706 56.4519 69.6054 58.1091 71.0082 59.8882Z" fill="#263238"/>
<path d="M59.3316 60.4479C59.7054 59.812 60.2008 59.256 60.7896 58.8115C61.3784 58.3671 62.049 58.043 62.7631 57.8577C63.4773 57.6724 64.2209 57.6296 64.9516 57.7317C65.6823 57.8338 66.3857 58.0788 67.0217 58.4527C70.7974 60.6364 70.5091 66.7662 69.123 70.2911C67.6038 74.2206 62.4697 74.725 59.814 71.1502C58.0287 68.767 58.256 67.0322 58.572 62.9254C58.6273 62.0514 58.8875 61.2027 59.3316 60.4479Z" fill="#FFB573"/>
<path d="M64.3495 64.9816C64.3218 65.3197 64.4715 65.6079 64.6877 65.63C64.9039 65.6522 65.1091 65.3973 65.1479 65.0758C65.1867 64.7544 65.0259 64.4495 64.8097 64.4274C64.5934 64.4052 64.3994 64.6879 64.3495 64.9816Z" fill="#263238"/>
<path d="M64.6987 64.4773L65.5248 64.3276C65.5248 64.3276 65.0591 64.893 64.6987 64.4773Z" fill="#263238"/>
<path d="M68.5522 65.9402C68.5522 66.2783 68.6742 66.5665 68.8905 66.5886C69.1067 66.6108 69.3118 66.3559 69.3506 66.0344C69.3894 65.713 69.2287 65.4081 69.0124 65.386C68.7962 65.3638 68.6021 65.6243 68.5522 65.9402Z" fill="#263238"/>
<path d="M68.9014 65.4138L69.7275 65.2642C69.7275 65.2642 69.2618 65.8295 68.9014 65.4138Z" fill="#263238"/>
<path d="M66.9775 68.4731C67.1719 68.5521 67.3811 68.5881 67.5907 68.5785C67.8003 68.5689 68.0054 68.5141 68.1918 68.4177C67.7928 67.7008 67.4943 66.9324 67.3047 66.1343L66.9775 68.4731Z" fill="#ED893E"/>
<path d="M63.8118 68.3346C63.8016 68.3108 63.8004 68.2841 63.8086 68.2596C63.8168 68.2351 63.8337 68.2144 63.8562 68.2015C63.8797 68.19 63.9069 68.1881 63.9318 68.1964C63.9567 68.2047 63.9774 68.2225 63.9892 68.2459C64.194 68.6094 64.4823 68.9191 64.8302 69.1494C65.1782 69.3797 65.576 69.524 65.9908 69.5705C66.0147 69.5769 66.0355 69.5916 66.0497 69.6118C66.0639 69.6321 66.0705 69.6567 66.0684 69.6814C66.0671 69.6936 66.0632 69.7054 66.0571 69.7161C66.051 69.7268 66.0427 69.736 66.0328 69.7433C66.0229 69.7506 66.0116 69.7558 65.9996 69.7585C65.9876 69.7612 65.9751 69.7613 65.963 69.7589C65.8035 69.7415 65.6458 69.7099 65.4918 69.6647C65.1375 69.5656 64.8064 69.3969 64.518 69.1685C64.2296 68.9401 63.9895 68.6566 63.8118 68.3346Z" fill="#263238"/>
<path d="M64.2053 62.8476C64.1744 62.8065 64.1612 62.7547 64.1685 62.7038C64.1757 62.6529 64.203 62.6069 64.2441 62.5761C64.5735 62.3765 64.9418 62.2495 65.3243 62.2036C65.7067 62.1577 66.0946 62.194 66.4619 62.31C66.5106 62.3276 66.5506 62.3635 66.5734 62.41C66.5961 62.4566 66.5999 62.5102 66.5839 62.5594C66.5674 62.6078 66.5326 62.6476 66.4869 62.6705C66.4413 62.6933 66.3884 62.6972 66.3399 62.6814C66.0336 62.5826 65.71 62.5493 65.39 62.5837C65.07 62.6181 64.7608 62.7193 64.4825 62.8809C64.4502 62.9065 64.4101 62.9205 64.3689 62.9205C64.3276 62.9205 64.2876 62.9065 64.2552 62.8809L64.2053 62.8476Z" fill="#263238"/>
<path d="M70.2542 64.1281C70.121 63.9198 69.9396 63.7466 69.7254 63.6231C69.5112 63.4997 69.2704 63.4295 69.0233 63.4187C68.9974 63.4194 68.9715 63.4149 68.9474 63.4055C68.9232 63.3961 68.9011 63.3819 68.8825 63.3638C68.8639 63.3457 68.8491 63.3241 68.839 63.3002C68.8289 63.2763 68.8237 63.2506 68.8237 63.2247C68.8237 63.1727 68.844 63.1228 68.8802 63.0855C68.9165 63.0482 68.9658 63.0266 69.0178 63.0251C69.3293 63.0361 69.6338 63.1213 69.9057 63.2736C70.1777 63.4259 70.4093 63.641 70.5813 63.9008C70.5956 63.9218 70.6056 63.9454 70.6106 63.9703C70.6155 63.9952 70.6154 64.0208 70.6103 64.0457C70.6051 64.0705 70.5949 64.0941 70.5804 64.1149C70.5659 64.1357 70.5474 64.1534 70.5259 64.1669C70.497 64.1857 70.4633 64.1957 70.4288 64.1957C70.3944 64.1957 70.3607 64.1857 70.3318 64.1669L70.2542 64.1281Z" fill="#263238"/>
<path d="M65.2089 59.6276C64.5895 59.7438 64.0037 59.996 63.4936 60.3659C62.9835 60.7359 62.5619 61.2144 62.2593 61.767C61.9765 62.288 60.158 63.4297 59.8475 63.9451C58.8717 65.569 59.9362 70.1913 59.476 70.5405C59.0158 70.8897 59.1766 69.5207 58.7386 69.2547C58.2739 69.045 57.8286 68.7946 57.408 68.5065C56.8535 68.0409 54.9296 63.0251 57.3026 59.9879C58.4834 58.3858 60.2119 57.2734 62.1595 56.862C64.1327 56.5268 66.1584 56.9872 67.7926 58.1423C68.3082 58.5136 69.212 59.5279 67.7926 59.9823C67.4045 60.1043 67.3879 59.7939 66.9831 59.6941C66.4034 59.5444 65.7982 59.5217 65.2089 59.6276Z" fill="#263238"/>
<path d="M55.7721 63.9452C57.1416 62.615 58.8492 62.615 60.3573 62.615C61.0739 62.6717 61.7947 62.5908 62.4808 62.3767C64 61.7171 64.9314 59.5501 65.1033 58.8407C65.1952 58.5504 65.3594 58.2882 65.5806 58.0787C65.8017 57.8693 66.0725 57.7196 66.3674 57.6435C66.6075 57.6318 66.847 57.6757 67.0673 57.7718C67.2875 57.868 67.4826 58.0137 67.6371 58.1978C67.9088 58.5913 67.881 59.1621 67.5539 59.8605L67.7702 59.9547C68.1305 59.151 68.1472 58.5081 67.8311 58.0426C67.6525 57.8268 67.4265 57.6551 67.1708 57.5407C66.915 57.4263 66.6363 57.3724 66.3563 57.383C66.0098 57.4603 65.6901 57.6283 65.4299 57.8699C65.1698 58.1114 64.9786 58.4178 64.876 58.7575C64.7207 59.4115 63.8059 61.5287 62.3866 62.1384C61.7303 62.3399 61.0413 62.4133 60.3573 62.3545C58.8825 62.3545 57.0307 62.3545 55.6113 63.7512L55.7721 63.9452Z" fill="#263238"/>
<path opacity="0.1" d="M55.7721 63.9452C57.1416 62.615 58.8492 62.615 60.3573 62.615C61.0739 62.6717 61.7947 62.5908 62.4808 62.3767C64 61.7171 64.9314 59.5501 65.1033 58.8407C65.1952 58.5504 65.3594 58.2882 65.5806 58.0787C65.8017 57.8693 66.0725 57.7196 66.3674 57.6435C66.6075 57.6318 66.847 57.6757 67.0673 57.7718C67.2875 57.868 67.4826 58.0137 67.6371 58.1978C67.9088 58.5913 67.881 59.1621 67.5539 59.8605L67.7702 59.9547C68.1305 59.151 68.1472 58.5081 67.8311 58.0426C67.6525 57.8268 67.4265 57.6551 67.1708 57.5407C66.915 57.4263 66.6363 57.3724 66.3563 57.383C66.0098 57.4603 65.6901 57.6283 65.4299 57.8699C65.1698 58.1114 64.9786 58.4178 64.876 58.7575C64.7207 59.4115 63.8059 61.5287 62.3866 62.1384C61.7303 62.3399 61.0413 62.4133 60.3573 62.3545C58.8825 62.3545 57.0307 62.3545 55.6113 63.7512L55.7721 63.9452Z" fill="white"/>
<path d="M56.9475 65.5026C56.97 65.3267 57.0271 65.1569 57.1155 65.0031C57.2039 64.8493 57.3217 64.7145 57.4624 64.6063C57.603 64.4982 57.7637 64.4189 57.935 64.3729C58.1064 64.327 58.2852 64.3154 58.4611 64.3387C59.4813 64.4939 59.947 65.8684 59.947 66.7663C59.947 67.7584 59.2096 68.4955 58.3114 67.9357C57.6385 67.5068 57.1622 66.8295 56.9863 66.0513C56.9348 65.8732 56.9215 65.6862 56.9475 65.5026Z" fill="#FFB573"/>
<path d="M58.7609 80.1288C58.5446 82.9664 55.9221 93.6853 50.2391 93.9846C49.3337 94.0099 48.4516 93.6955 47.7664 93.1034C43.1867 90.3322 46.785 76.9752 47.7054 76.1992C48.105 75.8566 48.5842 75.6197 49.0991 75.51C49.614 75.4003 50.1482 75.4214 50.6528 75.5714C51.1574 75.7213 51.6164 75.9953 51.9877 76.3684C52.3591 76.7414 52.6309 77.2016 52.7785 77.7068C52.8981 77.2841 52.9925 76.8548 53.0612 76.4209C53.2996 74.9744 54.0869 71.6046 55.5396 71.3608C56.4156 71.2111 58.2175 71.1335 58.7387 71.8485C59.2599 72.5635 59.1212 75.4455 58.7609 80.1288Z" fill="#407BFF"/>
<g opacity="0.2">
<path opacity="0.2" d="M58.4614 64.3386V64.588L58.722 67.0488V70.219L59.1545 68.3346C59.2642 67.8437 59.2886 67.3375 59.2266 66.8382L58.9216 64.4772L58.4614 64.3386Z" fill="black"/>
</g>
<path d="M55.6116 71.9317L54.9297 66.9935L59.0492 66.9602C59.0492 66.9602 58.711 70.668 57.6797 71.9483L55.6116 71.9317Z" fill="#FFB573"/>
<path d="M55.656 63.6182L58.7054 64.1558L59.0325 66.9491L54.9297 66.9935L55.656 63.6182Z" fill="#FFB573"/>
<path opacity="0.2" d="M51.5143 82.2015C51.5143 82.2015 49.0471 87.899 48.9695 85.6433C48.8918 83.1881 51.5143 82.2015 51.5143 82.2015Z" fill="black"/>
<path d="M96.224 55.4044H107.923C108.458 55.4044 108.971 55.617 109.35 55.9953C109.728 56.3736 109.941 56.8868 109.941 57.4218V64.9816C109.941 65.2462 109.889 65.5083 109.787 65.7528C109.686 65.9972 109.537 66.2193 109.349 66.4061C109.162 66.593 108.939 66.7411 108.695 66.8419C108.45 66.9427 108.187 66.9942 107.923 66.9934H104.557L103.06 68.961C102.945 69.1126 102.796 69.2355 102.625 69.3201C102.455 69.4047 102.267 69.4487 102.076 69.4487C101.886 69.4487 101.698 69.4047 101.527 69.3201C101.356 69.2355 101.207 69.1126 101.092 68.961L99.5895 66.9934H96.224C95.9595 66.9942 95.6975 66.9426 95.453 66.8418C95.2085 66.7409 94.9863 66.5928 94.7993 66.4058C94.6122 66.2188 94.464 65.9968 94.3631 65.7523C94.2623 65.5079 94.2107 65.246 94.2114 64.9816V57.4218C94.2107 57.1572 94.2622 56.8949 94.363 56.6502C94.4639 56.4055 94.612 56.183 94.799 55.9956C94.9859 55.8082 95.208 55.6595 95.4526 55.5581C95.6971 55.4566 95.9593 55.4044 96.224 55.4044Z" fill="#407BFF"/>
<path opacity="0.7" d="M96.224 55.4044H107.923C108.458 55.4044 108.971 55.617 109.35 55.9953C109.728 56.3736 109.941 56.8868 109.941 57.4218V64.9816C109.941 65.2462 109.889 65.5083 109.787 65.7528C109.686 65.9972 109.537 66.2193 109.349 66.4061C109.162 66.593 108.939 66.7411 108.695 66.8419C108.45 66.9427 108.187 66.9942 107.923 66.9934H104.557L103.06 68.961C102.945 69.1126 102.796 69.2355 102.625 69.3201C102.455 69.4047 102.267 69.4487 102.076 69.4487C101.886 69.4487 101.698 69.4047 101.527 69.3201C101.356 69.2355 101.207 69.1126 101.092 68.961L99.5895 66.9934H96.224C95.9595 66.9942 95.6975 66.9426 95.453 66.8418C95.2085 66.7409 94.9863 66.5928 94.7993 66.4058C94.6122 66.2188 94.464 65.9968 94.3631 65.7523C94.2623 65.5079 94.2107 65.246 94.2114 64.9816V57.4218C94.2107 57.1572 94.2622 56.8949 94.363 56.6502C94.4639 56.4055 94.612 56.183 94.799 55.9956C94.9859 55.8082 95.208 55.6595 95.4526 55.5581C95.6971 55.4566 95.9593 55.4044 96.224 55.4044Z" fill="#407BFF"/>
<path d="M96.9175 60.581L100.665 58.2976V59.6666H102.379C103.001 59.6683 103.614 59.8094 104.174 60.0795C104.734 60.3497 105.227 60.7419 105.615 61.2275C106.003 61.713 106.278 62.2794 106.418 62.885C106.559 63.4906 106.561 64.1199 106.426 64.7267C106.218 63.8094 105.703 62.9901 104.968 62.403C104.233 61.816 103.32 61.496 102.379 61.4955H100.665V62.8645L96.9175 60.581Z" fill="#A4C0FF"/>
<g clip-path="url(#clip1_414_3188)">
<path d="M102.672 70.6376C109.499 70.6376 115.034 65.1087 115.034 58.2886C115.034 51.4684 109.499 45.9396 102.672 45.9396C95.8451 45.9396 90.3105 51.4684 90.3105 58.2886C90.3105 65.1087 95.8451 70.6376 102.672 70.6376Z" fill="#FFC52E"/>
<path d="M102.672 67.4621C107.741 67.4621 111.85 63.3549 111.85 58.2885C111.85 53.2221 107.741 49.115 102.672 49.115C97.6037 49.115 93.4946 53.2221 93.4946 58.2885C93.4946 63.3549 97.6037 67.4621 102.672 67.4621Z" fill="#FDE994"/>
<path d="M103.217 63.4848L102.854 63.1105L101.892 61.9772C101.583 61.603 101.262 61.2288 100.931 60.908C100.599 60.5873 100.279 60.1703 99.9478 59.8388L99.435 59.2829C99.4096 59.2557 99.3899 59.2238 99.3771 59.1889C99.3642 59.154 99.3584 59.1169 99.3601 59.0798C99.3601 58.7804 99.3601 58.4917 99.3601 58.203C99.3547 58.1667 99.358 58.1295 99.3695 58.0946C99.381 58.0597 99.4004 58.028 99.4264 58.002C99.4523 57.9761 99.4841 57.9565 99.519 57.945C99.5538 57.9335 99.5909 57.9303 99.6272 57.9357H100.557C100.981 57.9472 101.403 57.8708 101.796 57.7112C101.998 57.6405 102.182 57.5276 102.337 57.3801C102.492 57.2327 102.613 57.054 102.694 56.8559C102.697 56.806 102.697 56.756 102.694 56.7062H99.5524C99.3814 56.7062 99.3066 56.6099 99.3066 56.4389C99.3066 56.2678 99.3066 55.9791 99.3066 55.7546C99.3066 55.5301 99.3814 55.4766 99.5844 55.4766H102.576C102.531 55.3689 102.466 55.2709 102.384 55.188C102.143 54.9545 101.838 54.7981 101.508 54.7389C101.193 54.6646 100.87 54.6322 100.546 54.6427H99.6807C99.467 54.6427 99.3815 54.5571 99.3815 54.354V53.4772C99.3815 53.2741 99.4563 53.1886 99.6593 53.1886H105.696C105.909 53.1886 105.984 53.2741 105.984 53.4772V54.1295C105.984 54.3326 105.909 54.4074 105.696 54.4074H104.04V54.493C104.235 54.7656 104.373 55.0747 104.446 55.4018C104.446 55.466 104.446 55.4873 104.553 55.4766H105.675C105.888 55.4766 105.963 55.5622 105.963 55.776V56.4068C105.963 56.6207 105.888 56.6955 105.664 56.7062H104.596C104.521 56.7062 104.489 56.7062 104.478 56.8024C104.414 57.181 104.271 57.542 104.06 57.8623C103.848 58.1827 103.572 58.4553 103.249 58.6628C102.762 58.9721 102.21 59.1659 101.636 59.2294H101.55L101.636 59.3364C102.053 59.8068 102.469 60.2665 102.875 60.737C103.281 61.2074 103.591 61.5709 103.944 61.9879L104.916 63.164C104.943 63.1919 104.963 63.2264 104.974 63.264C104.985 63.3017 104.986 63.3414 104.977 63.3796C104.969 63.4179 104.951 63.4534 104.926 63.483C104.9 63.5125 104.867 63.5352 104.831 63.5489H103.239L103.217 63.4848Z" fill="#FFC52E"/>
</g>
<path d="M204.403 76.6914C212.91 76.6914 219.806 69.8209 219.806 61.3457C219.806 52.8705 212.91 46 204.403 46C195.896 46 189 52.8705 189 61.3457C189 69.8209 195.896 76.6914 204.403 76.6914Z" fill="#407BFF"/>
<path fill-rule="evenodd" clip-rule="evenodd" d="M211.818 54.1493C210.139 52.4892 207.913 51.4917 205.552 51.3414C203.191 51.1911 200.855 51.8982 198.978 53.3318C197.1 54.7653 195.807 56.8282 195.339 59.1385C194.871 61.4487 195.259 63.8497 196.431 65.8969L195.052 70.9406L200.226 69.5824C201.659 70.3609 203.266 70.7678 204.898 70.7659C206.83 70.7646 208.718 70.193 210.324 69.1234C211.93 68.0538 213.182 66.5341 213.921 64.7561C214.661 62.9782 214.855 61.0218 214.479 59.134C214.104 57.2462 213.175 55.5116 211.81 54.1493H211.818ZM204.906 69.1217C203.452 69.1236 202.025 68.7338 200.776 67.9938L200.473 67.819L197.404 68.6133L198.201 65.6347L198.01 65.325C197.053 63.8066 196.631 62.0147 196.808 60.231C196.985 58.4472 197.753 56.7728 198.989 55.4707C200.226 54.1686 201.861 53.3128 203.639 53.0378C205.417 52.7627 207.236 53.0839 208.811 53.951C210.386 54.8181 211.626 56.1819 212.338 57.828C213.05 59.4742 213.193 61.3093 212.744 63.0451C212.295 64.7809 211.28 66.3189 209.859 67.4174C208.437 68.5159 206.689 69.1126 204.89 69.1137L204.906 69.1217ZM209.355 63.0692C209.116 62.9421 207.912 62.3543 207.688 62.2749C207.465 62.1955 207.306 62.1557 207.138 62.394C206.89 62.7255 206.623 63.0437 206.341 63.3472C206.198 63.514 206.054 63.5299 205.815 63.4107C205.095 63.1254 204.432 62.7168 203.854 62.2034C203.316 61.7143 202.856 61.1465 202.49 60.5195C202.347 60.2733 202.49 60.1462 202.602 60.027C202.713 59.9079 202.841 59.7411 202.969 59.5981C203.066 59.4744 203.147 59.3382 203.208 59.193C203.241 59.1265 203.259 59.0531 203.259 58.9786C203.259 58.9041 203.241 58.8306 203.208 58.7641C203.144 58.645 202.658 57.4456 202.45 56.9611C202.243 56.4766 202.052 56.548 201.9 56.5401H201.438C201.313 56.5434 201.191 56.5727 201.078 56.626C200.965 56.6794 200.865 56.7556 200.784 56.8499C200.507 57.1091 200.288 57.4234 200.142 57.7723C199.995 58.1212 199.923 58.497 199.931 58.8753C200.008 59.7938 200.355 60.6694 200.928 61.3932C201.976 62.9545 203.413 64.2187 205.097 65.0628C205.553 65.2563 206.019 65.4259 206.493 65.5712C206.988 65.7229 207.512 65.7582 208.023 65.6744C208.364 65.6046 208.686 65.4655 208.97 65.266C209.254 65.0665 209.493 64.8107 209.674 64.5148C209.837 64.1513 209.887 63.7473 209.817 63.3551C209.761 63.2519 209.602 63.1883 209.355 63.0692Z" fill="white"/>
<g clip-path="url(#clip2_414_3188)">
<path d="M19.0074 196C28.4003 196 36.0147 188.389 36.0147 179C36.0147 169.611 28.4003 162 19.0074 162C9.61445 162 2 169.611 2 179C2 188.389 9.61445 196 19.0074 196Z" fill="#FFC52E"/>
<path d="M19.0073 191.629C25.9809 191.629 31.6342 185.975 31.6342 179C31.6342 172.026 25.9809 166.372 19.0073 166.372C12.0336 166.372 6.38037 172.026 6.38037 179C6.38037 185.975 12.0336 191.629 19.0073 191.629Z" fill="#FDE994"/>
<path d="M19.7567 186.153L19.2568 185.638L17.934 184.078C17.5077 183.563 17.0665 183.048 16.6108 182.606C16.1551 182.164 15.7143 181.59 15.2586 181.134L14.553 180.369C14.5181 180.331 14.491 180.287 14.4734 180.239C14.4557 180.191 14.4476 180.14 14.45 180.089C14.45 179.677 14.45 179.28 14.45 178.882C14.4426 178.832 14.4471 178.781 14.463 178.733C14.4788 178.685 14.5055 178.641 14.5412 178.606C14.5769 178.57 14.6206 178.543 14.6686 178.527C14.7166 178.511 14.7675 178.507 14.8175 178.514H16.0966C16.6801 178.53 17.2606 178.425 17.8016 178.205C18.079 178.108 18.3326 177.952 18.5455 177.749C18.7584 177.546 18.9258 177.3 19.0365 177.028C19.0409 176.959 19.0409 176.89 19.0365 176.822H14.7145C14.4793 176.822 14.3765 176.689 14.3765 176.454C14.3765 176.218 14.3765 175.821 14.3765 175.512C14.3765 175.203 14.4794 175.129 14.7587 175.129H18.8746C18.8127 174.981 18.723 174.846 18.6101 174.732C18.2786 174.41 17.8588 174.195 17.4047 174.113C16.9714 174.011 16.5267 173.967 16.0818 173.981H14.8911C14.5971 173.981 14.4795 173.863 14.4795 173.584V172.377C14.4795 172.097 14.5824 171.979 14.8617 171.979H23.1668C23.4607 171.979 23.5637 172.097 23.5637 172.377V173.274C23.5637 173.554 23.4607 173.657 23.1668 173.657H20.8886V173.775C21.1566 174.15 21.3464 174.576 21.447 175.026C21.447 175.114 21.4472 175.144 21.5942 175.129H23.1377C23.4317 175.129 23.5342 175.247 23.5342 175.541V176.41C23.5342 176.704 23.4317 176.807 23.123 176.822H21.653C21.5501 176.822 21.5059 176.822 21.4912 176.954C21.4029 177.475 21.207 177.972 20.9159 178.413C20.6248 178.854 20.2451 179.23 19.8009 179.515C19.1299 179.941 18.3707 180.208 17.5812 180.295H17.4635L17.5812 180.442C18.1545 181.09 18.7277 181.723 19.2862 182.371C19.8448 183.018 20.2711 183.519 20.7562 184.093L22.0937 185.712C22.1314 185.75 22.159 185.798 22.1737 185.849C22.1885 185.901 22.1901 185.956 22.1784 186.009C22.1667 186.061 22.1423 186.11 22.107 186.151C22.0717 186.191 22.0268 186.223 21.9764 186.242H19.7861L19.7567 186.153Z" fill="#FFC52E"/>
</g>
</g>
<defs>
<clipPath id="clip0_414_3188">
<rect width="222" height="201" rx="6" fill="white"/>
</clipPath>
<clipPath id="clip1_414_3188">
<rect width="24.7126" height="24.698" fill="white" transform="translate(90.3105 45.9396)"/>
</clipPath>
<clipPath id="clip2_414_3188">
<rect width="34" height="34" fill="white" transform="translate(2 162)"/>
</clipPath>
</defs>
</svg>
