<svg width="130" height="96" viewBox="0 0 130 96" fill="none" xmlns="http://www.w3.org/2000/svg">
<g id="Group 5201">
<ellipse id="Ellipse 14" cx="65.4514" cy="82.9907" rx="64.5484" ry="13.0093" fill="#5CBD5A"/>
<g id="Frame" clip-path="url(#clip0_309_1201)">
<path id="Vector" d="M118.264 48.1099V50.497C118.224 51.8812 117.651 53.1951 116.668 54.1584C115.684 55.1218 114.367 55.6584 112.997 55.6538V71.6446C112.993 73.0583 112.435 74.4128 111.445 75.411C110.455 76.4092 109.114 76.9698 107.716 76.9698H39.1035C37.7068 76.9698 36.3674 76.4087 35.3798 75.41C34.3922 74.4114 33.8373 73.0569 33.8373 71.6446V26.3656C33.8353 25.665 33.97 24.9708 34.2337 24.323C34.4975 23.6751 34.885 23.0863 35.3742 22.5902C35.8634 22.0941 36.4449 21.7005 37.0848 21.4319C37.7247 21.1633 38.4107 21.0251 39.1035 21.0251H107.716C109.117 21.0251 110.46 21.5877 111.451 22.5893C112.441 23.5908 112.997 24.9492 112.997 26.3656V51.1244C115.797 50.2675 118.264 49.2116 118.264 48.1099Z" fill="#4CAB4A"/>
<path id="Vector_2" d="M118.264 47.6662V48.1099C118.264 49.2117 115.797 50.2675 112.997 51.1703V42.3104C113.692 42.3104 114.379 42.4491 115.02 42.7187C115.661 42.9882 116.242 43.3832 116.732 43.8809C117.221 44.3786 117.608 44.9693 117.871 45.6189C118.134 46.2685 118.268 46.9643 118.264 47.6662Z" fill="#20549E"/>
<path id="Vector_3" d="M73.1522 44.8353C85.4129 44.8353 95.3521 34.7986 95.3521 22.4176C95.3521 10.0367 85.4129 0 73.1522 0C60.8915 0 50.9523 10.0367 50.9523 22.4176C50.9523 34.7986 60.8915 44.8353 73.1522 44.8353Z" fill="#FFC52E"/>
<path id="Vector_4" d="M73.1523 39.0663C82.2538 39.0663 89.632 31.6124 89.632 22.4175C89.632 13.2227 82.2538 5.7688 73.1523 5.7688C64.0508 5.7688 56.6726 13.2227 56.6726 22.4175C56.6726 31.6124 64.0508 39.0663 73.1523 39.0663Z" fill="#FDE994"/>
<path id="Vector_5" d="M74.136 31.859C73.9241 31.6295 73.6973 31.4 73.4854 31.1552L71.7604 29.1047C71.1954 28.4314 70.6202 27.7581 70.0351 27.0848C69.46 26.4115 68.8548 25.7535 68.2646 25.0802L67.3414 24.0703C67.2507 23.9642 67.2024 23.8279 67.2054 23.6877V22.1575C67.1982 22.0914 67.2058 22.0246 67.2276 21.9618C67.2494 21.8991 67.2849 21.8421 67.3314 21.7951C67.3779 21.7481 67.4341 21.7123 67.4962 21.6903C67.5582 21.6682 67.624 21.6606 67.6894 21.6678H69.3541C70.1142 21.6829 70.8698 21.5477 71.5786 21.27C71.9386 21.1422 72.2686 20.9402 72.5473 20.6768C72.8261 20.4134 73.0476 20.0943 73.198 19.7398L73.2888 19.4643H67.6595C67.3417 19.4643 67.2054 19.3113 67.2054 18.99V17.7505C67.2054 17.3985 67.3565 17.2455 67.7045 17.2455H73.1677C73.0885 17.0496 72.97 16.8725 72.8196 16.7253C72.4008 16.3131 71.8769 16.0269 71.3063 15.8989C70.7439 15.7816 70.1704 15.7252 69.5961 15.7306H67.8863C67.508 15.7306 67.3565 15.5776 67.3565 15.1951V13.6648C67.3565 13.2823 67.4928 13.1445 67.8712 13.1445H78.7062C79.0845 13.1445 79.2208 13.2823 79.236 13.6648V14.7666C79.236 15.1491 79.0996 15.2869 78.7062 15.2869H75.6796C75.6842 15.3327 75.6842 15.3787 75.6796 15.4245C76.031 15.9194 76.2781 16.4819 76.4059 17.0772C76.4059 17.1996 76.4818 17.2302 76.6028 17.2302H78.6156C78.994 17.2302 79.1299 17.3833 79.1299 17.7658V18.9287C79.1299 19.3112 78.994 19.449 78.6156 19.449H76.6634C76.5424 19.449 76.4816 19.449 76.4514 19.6173C76.3344 20.3254 76.0658 20.9992 75.6644 21.5913C75.2882 22.1479 74.8044 22.6216 74.242 22.9838C73.3633 23.5473 72.3702 23.9029 71.3366 24.0243H71.2003C71.2604 24.0919 71.3162 24.1635 71.3669 24.2386C72.1084 25.0802 72.8802 25.9066 73.6066 26.7635L75.5133 29.0435C76.1035 29.7474 76.6784 30.4665 77.2535 31.1704C77.3039 31.2201 77.3415 31.2817 77.3624 31.3496C77.3834 31.4176 77.3874 31.4898 77.3739 31.5597C77.3604 31.6295 77.3296 31.6949 77.2849 31.7498C77.2401 31.8048 77.1827 31.8476 77.1175 31.8743L74.136 31.859Z" fill="#FFC52E"/>
<path id="Vector_6" d="M74.5294 39.0051C74.0755 39.0051 73.6216 39.0051 73.1525 39.0051C70.9493 39.0727 68.7554 38.6922 66.7003 37.8863C64.6453 37.0805 62.7712 35.8655 61.1892 34.3135C59.6071 32.7616 58.3491 30.9042 57.4902 28.8516C56.6313 26.799 56.189 24.5929 56.189 22.3641C56.189 20.1352 56.6313 17.9291 57.4902 15.8764C58.3491 13.8238 59.6071 11.9664 61.1892 10.4145C62.7712 8.86255 64.6453 7.64759 66.7003 6.84169C68.7554 6.0358 70.9493 5.65542 73.1525 5.72298C73.6216 5.72298 74.0755 5.72298 74.5294 5.72298C70.4221 6.08011 66.5967 7.98229 63.8093 11.0536C61.022 14.1249 59.4756 18.1418 59.4756 22.3105C59.4756 26.4791 61.022 30.496 63.8093 33.5673C66.5967 36.6386 70.4221 38.5409 74.5294 38.898V39.0051Z" fill="#FFD763"/>
<path id="Vector_7" d="M39.1035 31.1705L97.1534 39.1582C97.8462 39.1562 98.5325 39.2925 99.1732 39.5592C99.8139 39.8259 100.396 40.2178 100.887 40.7125C101.377 41.2072 101.767 41.7949 102.032 42.442C102.298 43.089 102.435 43.7827 102.435 44.4833V89.7471C102.435 90.4477 102.298 91.1414 102.032 91.7885C101.767 92.4356 101.377 93.0233 100.887 93.518C100.396 94.0127 99.8139 94.4046 99.1732 94.6713C98.5325 94.938 97.8462 95.0742 97.1534 95.0722L39.1035 87.0846C37.7068 87.0846 36.3674 86.5235 35.3798 85.5248C34.3921 84.5262 33.8373 83.1718 33.8373 81.7594V25.8453C33.8373 27.2577 34.3921 28.6122 35.3798 29.6108C36.3674 30.6095 37.7068 31.1705 39.1035 31.1705Z" fill="#9BEC99"/>
<path id="Vector_8" d="M46.8366 88.2169L39.0884 87.1457C37.6917 87.1457 36.3522 86.5847 35.3646 85.5861C34.377 84.5874 33.8221 83.2329 33.8221 81.8206V25.8453C33.8221 27.2577 34.377 28.6122 35.3646 29.6108C36.3522 30.6095 37.6917 31.1705 39.0884 31.1705L46.3674 32.1651V85.7226C46.3723 86.576 46.5313 87.4213 46.8366 88.2169Z" fill="#9BEC99"/>
<path id="Vector_9" d="M90.5705 57.8116C91.351 57.8146 92.1131 58.0514 92.7606 58.492C93.4081 58.9327 93.9122 59.5576 94.2088 60.2876C94.5055 61.0176 94.5813 61.8202 94.4272 62.5939C94.2731 63.3677 93.8958 64.0778 93.3428 64.6348C92.7899 65.1919 92.0862 65.5707 91.3205 65.7236C90.5547 65.8764 89.7614 65.7964 89.0405 65.4937C88.3197 65.191 87.7034 64.6791 87.2701 64.0226C86.8368 63.3662 86.6055 62.5946 86.6055 61.8054C86.6055 61.2796 86.7082 60.759 86.9077 60.2735C87.1071 59.7879 87.3994 59.347 87.7678 58.9759C88.1361 58.6049 88.5733 58.311 89.0542 58.1112C89.5352 57.9114 90.0505 57.8095 90.5705 57.8116Z" fill="white"/>
<path id="Vector_10" d="M118.264 48.1099V50.497C118.264 54.7969 116.554 59.1887 112.997 60.979L105.083 63.6569C103.678 63.6569 102.331 63.0926 101.338 62.0882C100.345 61.0838 99.7865 59.7216 99.7865 58.3011C99.7865 56.8807 100.345 55.5184 101.338 54.514C102.331 53.5096 103.678 52.9454 105.083 52.9454C105.083 52.9454 109.32 52.1802 112.997 51.0632C115.797 50.2675 118.264 49.2116 118.264 48.1099Z" fill="#459DD8"/>
<path id="Vector_11" d="M48.062 75.1641H7.64214C6.94845 75.1641 6.38611 75.7327 6.38611 76.4341V86.5489C6.38611 87.2503 6.94845 87.8189 7.64214 87.8189H48.062C48.7557 87.8189 49.3181 87.2503 49.3181 86.5489V76.4341C49.3181 75.7327 48.7557 75.1641 48.062 75.1641Z" fill="#FFD763"/>
<path id="Vector_12" d="M45.5955 49.8544H5.17558C4.4819 49.8544 3.91956 50.423 3.91956 51.1244V61.2392C3.91956 61.9406 4.4819 62.5092 5.17558 62.5092H45.5955C46.2892 62.5092 46.8515 61.9406 46.8515 61.2392V51.1244C46.8515 50.423 46.2892 49.8544 45.5955 49.8544Z" fill="#FFD763"/>
<path id="Vector_13" d="M41.6759 62.5093H1.25603C0.562343 62.5093 0 63.0779 0 63.7794V73.8941C0 74.5955 0.562343 75.1641 1.25603 75.1641H41.6759C42.3696 75.1641 42.932 74.5955 42.932 73.8941V63.7794C42.932 63.0779 42.3696 62.5093 41.6759 62.5093Z" fill="#FDE994"/>
</g>
</g>
<defs>
<clipPath id="clip0_309_1201">
<rect width="118.263" height="95.1028" fill="white"/>
</clipPath>
</defs>
</svg>
