<svg width="33" height="32" viewBox="0 0 33 32" fill="none" xmlns="http://www.w3.org/2000/svg">
<path d="M28.5267 6.66663H25.8333V3.97329C25.8333 3.25329 25.2467 2.66663 24.5267 2.66663H24.4867C23.7533 2.66663 23.1667 3.25329 23.1667 3.97329V6.66663H20.4867C19.7667 6.66663 19.18 7.25329 19.1667 7.97329V8.01329C19.1667 8.74663 19.7533 9.33329 20.4867 9.33329H23.1667V12.0133C23.1667 12.7333 23.7533 13.3333 24.4867 13.32H24.5267C25.2467 13.32 25.8333 12.7333 25.8333 12.0133V9.33329H28.5267C29.2467 9.33329 29.8333 8.74663 29.8333 8.02663V7.97329C29.8333 7.25329 29.2467 6.66663 28.5267 6.66663ZM21.8333 12.0133V10.6666H20.4867C19.78 10.6666 19.1133 10.3866 18.6067 9.89329C18.1133 9.38663 17.8333 8.71996 17.8333 7.97329C17.8333 7.49329 17.9667 7.05329 18.1933 6.66663H7.16667C5.7 6.66663 4.5 7.86663 4.5 9.33329V25.3333C4.5 26.8 5.7 28 7.16667 28H23.1667C24.6333 28 25.8333 26.8 25.8333 25.3333V14.2933C25.4333 14.52 24.98 14.6666 24.4733 14.6666C23.02 14.6533 21.8333 13.4666 21.8333 12.0133ZM21.78 25.3333H8.5C7.95333 25.3333 7.63333 24.7066 7.96667 24.2666L10.6067 20.76C10.8867 20.3866 11.4333 20.4133 11.7 20.7866L13.8333 24L17.3133 19.36C17.58 19.0133 18.1 19 18.3667 19.3466L22.3 24.2533C22.6467 24.6933 22.34 25.3333 21.78 25.3333Z" fill="#0071BC"/>
</svg>
