<svg width="23" height="23" viewBox="0 0 23 23" fill="none" xmlns="http://www.w3.org/2000/svg">
<circle cx="11.5" cy="11.5" r="11.5" fill="#41A45C"/>
<path d="M9.92016 13.9208L6.92297 10.9236L5.90234 11.937L9.92016 15.9548L18.5452 7.32984L17.5317 6.31641L9.92016 13.9208Z" fill="white"/>
</svg>
