<svg width="31" height="31" viewBox="0 0 31 31" fill="none" xmlns="http://www.w3.org/2000/svg">
<g clip-path="url(#clip0_156_919)">
<path d="M15.7671 0.496099C7.49807 0.489416 0.759199 7.20109 0.750011 15.4481C0.739988 23.756 7.44461 30.4894 15.7329 30.4969C24.0019 30.5036 30.7375 23.7961 30.75 15.545C30.7634 7.23868 24.0571 0.503616 15.7671 0.496099ZM23.5985 25.3172C22.2888 25.3256 20.9791 25.3172 19.6728 25.3172H12.8922C12.1028 25.2646 11.6059 24.6105 11.7161 23.7936C11.8531 22.7779 12.3685 21.9868 13.1469 21.3512C13.8677 20.7665 14.6988 20.3889 15.5917 20.145C17.304 19.6438 19.0238 19.6563 20.7486 20.0757C20.8175 20.0983 20.8845 20.1263 20.9491 20.1592C22.5595 20.6077 23.9351 21.3637 24.6284 22.9992C24.7726 23.3457 24.8407 23.7192 24.828 24.0943C24.808 24.7926 24.301 25.313 23.5985 25.3172Z" fill="#FBC32F"/>
<path d="M24.6238 22.9958C23.9306 21.3603 22.5549 20.6043 20.9445 20.1558C20.8799 20.1228 20.8129 20.0949 20.744 20.0722C19.0192 19.6546 17.2994 19.6395 15.5871 20.1416C15.5922 20.5784 15.5688 21.0186 15.6097 21.4522C15.5696 21.022 15.5855 20.5851 15.5813 20.1541C14.6896 20.3655 13.8564 20.7733 13.1423 21.3477C12.3639 21.9834 11.8485 22.7744 11.7115 23.7902C11.6013 24.6071 12.0983 25.2612 12.8876 25.3138C14.8446 22.7853 18.2792 23.3191 19.6682 25.3138C20.9787 25.3138 22.2884 25.3221 23.5939 25.3138C24.2997 25.3096 24.8034 24.7892 24.8193 24.0875C24.8328 23.7139 24.7661 23.3416 24.6238 22.9958Z" fill="#7C4B40"/>
<path d="M12.8877 25.3153C14.8447 22.7869 18.2793 23.3206 19.6683 25.3153H12.8877Z" fill="#F31B1B"/>
<path d="M13.0166 18.598C12.3182 18.5988 11.6372 18.3802 11.0696 17.9731C9.97629 17.1988 9.30307 15.8072 9.3156 14.3412C9.31714 14.1539 9.3926 13.9747 9.52555 13.8427C9.65851 13.7106 9.83821 13.6364 10.0256 13.6362H10.0306C10.1238 13.6369 10.216 13.6559 10.3019 13.6922C10.3878 13.7285 10.4657 13.7813 10.5311 13.8477C10.5966 13.9141 10.6484 13.9928 10.6834 14.0792C10.7185 14.1656 10.7362 14.258 10.7355 14.3513C10.7289 15.3453 11.1832 16.3117 11.8924 16.8137C12.4495 17.2088 13.116 17.2832 13.8202 17.0301C14.9511 16.6233 15.3771 15.3695 15.398 14.332C15.4017 14.1462 15.4781 13.9692 15.6109 13.8391C15.7436 13.709 15.9221 13.6362 16.1079 13.6362H16.123C16.2162 13.6382 16.3081 13.6585 16.3935 13.696C16.4789 13.7335 16.5561 13.7874 16.6206 13.8548C16.6852 13.9221 16.7358 14.0015 16.7697 14.0884C16.8035 14.1753 16.8199 14.268 16.8179 14.3613C16.7778 16.2867 15.8156 17.822 14.3013 18.3657C13.8898 18.5171 13.4551 18.5957 13.0166 18.598Z" fill="#7C4B40"/>
<path d="M23.6532 18.5971C23.5305 18.5971 23.4079 18.591 23.2857 18.5787C22.2834 18.4785 21.3805 17.9414 20.7532 17.0668C20.194 16.2683 19.8961 15.3161 19.9004 14.3412C19.9018 14.1539 19.977 13.9747 20.1098 13.8427C20.2427 13.7106 20.4223 13.6364 20.6096 13.6362H20.6146C20.803 13.6375 20.9831 13.7136 21.1154 13.8476C21.2478 13.9817 21.3215 14.1628 21.3204 14.3512C21.3112 15.6301 22.0972 17.0325 23.4269 17.1654C23.6917 17.1978 23.9605 17.1744 24.2157 17.0965C24.4709 17.0187 24.707 16.8882 24.9086 16.7135C25.5109 16.2014 25.9226 15.2776 25.9836 14.3028C25.9891 14.2095 26.0129 14.1183 26.0536 14.0342C26.0944 13.9502 26.1513 13.875 26.2211 13.813C26.2909 13.7509 26.3722 13.7032 26.4605 13.6726C26.5487 13.642 26.6421 13.629 26.7353 13.6345C26.8286 13.64 26.9198 13.6638 27.0039 13.7046C27.0879 13.7453 27.1631 13.8022 27.2251 13.872C27.2872 13.9418 27.3349 14.0232 27.3655 14.1114C27.3961 14.1997 27.409 14.2931 27.4036 14.3863C27.32 15.7537 26.7303 17.0267 25.8308 17.7918C25.2264 18.3151 24.4526 18.6012 23.6532 18.5971Z" fill="#7C4B40"/>
</g>
<defs>
<clipPath id="clip0_156_919">
<rect width="30" height="30" fill="white" transform="translate(0.75 0.496094)"/>
</clipPath>
</defs>
</svg>
