<svg width="57" height="57" viewBox="0 0 57 57" fill="none" xmlns="http://www.w3.org/2000/svg">
<rect x="0.518066" y="0.64679" width="55.9953" height="55.9953" rx="27.9976" fill="#B5C1FF"/>
<g clip-path="url(#clip0_405_2560)">
<path d="M14.8488 11.5929H42.1821C44.2532 11.5929 45.9321 13.2719 45.9321 15.3429V42.3942C45.9321 44.4653 44.2532 46.1442 42.1821 46.1442H14.8488C12.7777 46.1442 11.0988 44.4653 11.0988 42.3942V15.3429C11.0988 13.2719 12.7777 11.5929 14.8488 11.5929Z" fill="#FFD183"/>
<path d="M31.6821 11.5933L31.6821 24.1574L25.3488 24.1574L25.3488 11.5933L31.6821 11.5933Z" fill="white"/>
<ellipse cx="28.5155" cy="32.1376" rx="10.1786" ry="10.0962" fill="#FC7578"/>
<path d="M31.6963 28.9554L25.3323 35.3194" stroke="white" stroke-width="2.8" stroke-linecap="round"/>
<path d="M31.6963 35.3198L25.3323 28.9558" stroke="white" stroke-width="2.8" stroke-linecap="round"/>
</g>
<defs>
<clipPath id="clip0_405_2560">
<rect width="38" height="35" fill="white" transform="translate(9.51562 11.1444)"/>
</clipPath>
</defs>
</svg>
