<svg width="21" height="21" viewBox="0 0 21 21" fill="none" xmlns="http://www.w3.org/2000/svg">
<path d="M18.8575 5.83214C18.8575 6.04218 18.7648 6.32037 18.6545 6.59208C18.5538 6.83875 18.4435 7.08079 18.3392 7.32514C18.2576 7.5338 18.207 7.75327 18.1889 7.97659C18.1787 8.06376 18.2228 8.12357 18.2738 8.18246C18.4082 8.33871 18.5742 8.46066 18.7351 8.58492C19.0509 8.83205 19.3921 9.04859 19.6652 9.3458C19.9031 9.60545 20.0825 9.8906 20.0598 10.2643C20.0408 10.5926 19.872 10.8444 19.6597 11.0757C19.3778 11.3827 19.0226 11.5992 18.7008 11.857C18.5956 11.9409 18.4922 12.0281 18.3855 12.1111C18.2001 12.2534 18.163 12.4357 18.2126 12.655C18.263 12.8886 18.3387 13.1161 18.4384 13.3333C18.6169 13.7094 18.7829 14.09 18.8436 14.5096C18.9113 14.9733 18.7017 15.4054 18.2849 15.6183C17.9807 15.7736 17.6511 15.8297 17.3172 15.8751C16.9834 15.9206 16.6301 15.9099 16.3032 16.0332C16.2207 16.0648 16.1381 16.0977 16.0547 16.126C16.0367 16.1328 16.0205 16.1435 16.0071 16.1573C15.9938 16.1711 15.9836 16.1876 15.9772 16.2057C15.8634 16.4545 15.7937 16.7213 15.7714 16.994C15.7338 17.4205 15.6986 17.848 15.5395 18.2524C15.3017 18.8635 14.8097 19.1148 14.1685 18.9581C13.8284 18.8694 13.4986 18.7451 13.1846 18.5871C12.9077 18.4502 12.6086 18.3637 12.3013 18.3316C12.2649 18.3284 12.2282 18.3329 12.1936 18.3448C12.159 18.3567 12.1273 18.3758 12.1005 18.4007C11.9151 18.5528 11.7843 18.7485 11.6401 18.9335C11.4083 19.2316 11.1978 19.5478 10.92 19.808C10.6581 20.0532 10.3636 20.2229 9.98947 20.2007C9.65609 20.1812 9.40292 20.0036 9.17062 19.7876C8.90633 19.5413 8.71345 19.2358 8.49182 18.953C8.39167 18.8259 8.28874 18.7003 8.19183 18.5704C8.03697 18.3632 7.84455 18.2922 7.58907 18.3581C7.36825 18.4117 7.1527 18.4851 6.94503 18.5774C6.62278 18.7262 6.29914 18.8727 5.95139 18.9539C5.56331 19.0466 5.19933 19.0118 4.88496 18.7378C4.69208 18.5686 4.59007 18.3451 4.51681 18.1063C4.40182 17.7312 4.37307 17.3422 4.3383 16.9546C4.31253 16.6893 4.24297 16.4302 4.13243 16.1877C4.11089 16.1468 4.07405 16.1161 4.02996 16.1023C3.74574 15.9711 3.44389 15.9201 3.13369 15.8937C2.76276 15.8617 2.38766 15.826 2.03342 15.6929C1.39773 15.4537 1.1404 14.9682 1.30361 14.3075C1.39338 13.96 1.52022 13.6231 1.68195 13.3027C1.78884 13.072 1.86671 12.8289 1.91379 12.5789C1.95737 12.3768 1.88505 12.234 1.7376 12.1153C1.59758 12.0003 1.45631 11.8867 1.31381 11.7745C1.0203 11.5426 0.703625 11.3396 0.448609 11.0618C0.268243 10.8657 0.119865 10.6529 0.0730347 10.3835C0.0136855 10.045 0.1194 9.75243 0.326659 9.48953C0.516762 9.2475 0.75323 9.05647 0.997118 8.87239C1.24101 8.68832 1.4696 8.51259 1.70236 8.32805C1.90313 8.16855 1.96479 7.98169 1.90127 7.73873C1.84811 7.51774 1.77421 7.30226 1.68056 7.09516C1.5002 6.71588 1.32958 6.33197 1.27254 5.90818C1.20299 5.3898 1.43946 4.96137 1.91843 4.74901C2.2263 4.61269 2.55365 4.56725 2.88332 4.52413C3.18795 4.48379 3.50092 4.49585 3.79581 4.38828C3.87881 4.35768 3.96042 4.32198 4.04388 4.2923C4.06699 4.28345 4.0879 4.26965 4.10512 4.25187C4.12234 4.23409 4.13546 4.21276 4.14356 4.18937C4.27756 3.89726 4.32903 3.5866 4.35732 3.27084C4.39024 2.90687 4.42686 2.54057 4.55854 2.19468C4.81077 1.53256 5.29298 1.28589 5.98106 1.45513C6.3316 1.54137 6.65988 1.68464 6.98351 1.83997C7.22852 1.95366 7.48897 2.03053 7.75644 2.06809C7.81144 2.07715 7.86783 2.07254 7.92063 2.05467C7.97343 2.03681 8.02102 2.00622 8.05922 1.96562C8.32026 1.72081 8.51268 1.42035 8.73014 1.14076C8.90541 0.914957 9.0816 0.693325 9.30185 0.506468C9.83831 0.0492932 10.4452 0.129507 10.9279 0.603374C11.1635 0.835207 11.3563 1.09903 11.5562 1.35869C11.6786 1.51772 11.8131 1.66795 11.9271 1.83209C12.0875 2.0616 12.2934 2.09731 12.554 2.04167C12.9249 1.96238 13.2495 1.77181 13.5968 1.63457C13.8457 1.53029 14.1063 1.45635 14.373 1.41433C14.6116 1.37921 14.8551 1.42601 15.0637 1.54711C15.2723 1.66821 15.4336 1.85644 15.5215 2.08108C15.6833 2.49606 15.7385 2.9319 15.77 3.37053C15.7889 3.65948 15.8588 3.94281 15.9763 4.20745C15.9829 4.22533 15.9929 4.24172 16.0059 4.25565C16.0189 4.26959 16.0345 4.28079 16.0519 4.28859C16.3198 4.40852 16.6064 4.4813 16.899 4.50373C17.3261 4.53758 17.7522 4.5807 18.1569 4.73556C18.6025 4.91269 18.8497 5.26507 18.8575 5.83214ZM5.52945 10.269C5.2392 10.269 5.00227 10.4141 4.91649 10.6441C4.82005 10.9005 4.86039 11.1351 5.06069 11.3354C5.92404 12.1969 6.78677 13.059 7.64888 13.9217C7.69828 13.9761 7.75661 14.0215 7.82136 14.0562C8.09075 14.1855 8.3606 14.1396 8.58363 13.9171C10.7681 11.7344 12.9518 9.55166 15.1348 7.36872C15.1786 7.32527 15.2181 7.27759 15.2525 7.22638C15.3097 7.14239 15.3451 7.0455 15.3555 6.94444C15.3659 6.84337 15.351 6.74131 15.3121 6.64744C15.2733 6.55357 15.2116 6.47084 15.1329 6.4067C15.0541 6.34256 14.9605 6.29904 14.8607 6.28004C14.6085 6.23089 14.4142 6.33058 14.239 6.50584C12.3713 8.37782 10.5037 10.249 8.63602 12.1194C8.3184 12.4389 7.91919 12.4621 7.58767 12.1162C7.05631 11.5598 6.50362 11.028 5.96206 10.4836C5.83084 10.352 5.67922 10.2727 5.52945 10.269Z" fill="#6A8ADB"/>
<path d="M5.53018 10.2685C5.67994 10.2722 5.83157 10.3515 5.96278 10.4832C6.50434 11.0276 7.05704 11.5617 7.5884 12.1158C7.91992 12.4617 8.31913 12.4403 8.63674 12.119C10.4998 10.2436 12.3674 8.37245 14.2397 6.50542C14.415 6.33015 14.6106 6.23047 14.8615 6.27961C14.9613 6.29861 15.0548 6.34214 15.1336 6.40628C15.2124 6.47041 15.274 6.55314 15.3128 6.64701C15.3517 6.74089 15.3666 6.84295 15.3562 6.94401C15.3458 7.04508 15.3104 7.14197 15.2533 7.22596C15.2188 7.27717 15.1793 7.32485 15.1355 7.3683C12.9526 9.55186 10.7688 11.7346 8.58435 13.9167C8.36133 14.1392 8.09148 14.1851 7.82209 14.0558C7.75734 14.0211 7.699 13.9756 7.64961 13.9213C6.78657 13.0595 5.92384 12.1974 5.06142 11.335C4.86111 11.1347 4.82077 10.9 4.91721 10.6436C5.00299 10.4137 5.23992 10.2671 5.53018 10.2685Z" fill="#6A8ADB"/>
<path d="M6.67127 9.69269L6.67127 9.69265L6.66728 9.69263C6.33476 9.69104 6.02934 9.86181 5.91525 10.1677L6.10261 10.2376L5.91545 10.1672C5.86069 10.3127 5.84058 10.4639 5.87047 10.6139C5.90052 10.7646 5.97805 10.8989 6.09383 11.0147C6.88588 11.8068 7.67821 12.5985 8.47083 13.39C8.53086 13.4552 8.60142 13.5098 8.67958 13.5517L8.67949 13.5518L8.68736 13.5556C8.84395 13.6308 9.01042 13.6592 9.1757 13.6296C9.34063 13.6 9.48954 13.5154 9.61618 13.389L9.61625 13.3889C11.625 11.3824 12.6435 10.3648 14.6508 8.35693C14.7002 8.30794 14.7446 8.2542 14.7835 8.19651C14.8546 8.09194 14.8985 7.97136 14.9115 7.8456C14.9245 7.71966 14.9059 7.59248 14.8575 7.4755C14.809 7.35853 14.7323 7.25544 14.6341 7.17552C14.536 7.09571 14.4197 7.04151 14.2955 7.01778C13.9772 6.9556 13.7336 7.09121 13.5446 7.28018C11.8226 8.99736 11.0945 9.72865 9.38119 11.4534L9.38084 11.4537C9.26223 11.5737 9.14501 11.6217 9.04336 11.6229C8.94352 11.6242 8.82602 11.5809 8.70343 11.4529L8.70339 11.4529C8.37964 11.1153 8.04571 10.7841 7.71391 10.455C7.54346 10.286 7.37358 10.1175 7.20592 9.94899L7.20581 9.94887C7.06195 9.8045 6.87641 9.69777 6.67127 9.69269ZM6.66632 9.89263C6.80404 9.89604 6.94347 9.96895 7.06414 10.09C7.23384 10.2606 7.40473 10.4301 7.57563 10.5996C7.90625 10.9275 8.23691 11.2554 8.55904 11.5913C8.8639 11.9094 9.23101 11.8898 9.52308 11.5943L6.66632 9.89263Z" fill="white" stroke="#FFFEFE" stroke-width="0.4"/>
</svg>
