<svg width="55" height="57" viewBox="0 0 55 57" fill="none" xmlns="http://www.w3.org/2000/svg">
<rect x="2.4458" y="0.404205" width="52.5374" height="53.2128" rx="26.2687" fill="#B5C1FF"/>
<g clip-path="url(#clip0_414_3005)">
<path d="M7.55725 38.5453L30.4441 25.2325L53.2649 38.6613L30.378 51.977L7.55725 38.5453Z" fill="#8D95BE"/>
<g clip-path="url(#clip1_414_3005)">
<path d="M31.8818 53.0898L36.4551 50.4405L36.4662 44.4416L31.893 47.0909L31.8818 53.0898Z" fill="#F8B84E"/>
<path d="M26.0634 43.754L26.0522 49.7529L31.8802 53.0969L31.8913 47.0999L26.0634 43.754Z" fill="#C57935"/>
<path d="M26.0522 43.7539L30.6422 41.2899L36.4701 44.4505L31.8802 47.0998L26.0522 43.7539Z" fill="#FFDB9C"/>
<path d="M28.2495 42.5813L28.784 42.2941L34.5303 45.5677L34.0218 45.8623L28.2495 42.5813Z" fill="white"/>
<path d="M34.5305 45.5675V46.7235L34.4767 46.6828L34.4489 46.8106L34.3486 46.7384L34.3245 46.8458L34.2428 46.781L34.2261 46.8829L34.1686 46.8236L34.1538 46.9236L34.0962 46.7828L34.0238 46.9236L34.022 45.8621L34.5305 45.5675Z" fill="#CFD8DC"/>
</g>
<path d="M27.7212 0.823135L54.718 16.62V40.5014L27.7212 24.7045V0.823135Z" fill="#0B1724"/>
<path d="M27.9829 32.3096V56.191L31.1666 54.3276C31.1637 54.3217 31.1637 54.3187 31.1607 54.3127L30.3325 54.7979V36.9174L53.2352 23.5167V41.3972L52.0839 42.0699C52.0868 42.0759 52.0868 42.0788 52.0898 42.0848L54.9827 40.3911V16.5097L27.9829 32.3096Z" fill="#F84671"/>
<path d="M54.9832 16.5095L27.9834 32.3094V31.7915L54.9832 15.9916V16.5095Z" fill="#E0E0E0"/>
<path d="M0.983398 16.5099L27.9832 32.3098V56.1912L0.983398 40.3943V16.5099Z" fill="#894247"/>
<path d="M22.6406 35.712V31.8008L25.933 33.7266V37.6409L22.6406 35.712Z" fill="white"/>
<path d="M23.0347 35.4824L25.537 36.9439V33.9583L23.0347 32.4938V35.4824Z" fill="#202334"/>
<path d="M18.5205 33.3009V29.3896L21.8129 31.3155V35.2267L18.5205 33.3009Z" fill="white"/>
<path d="M18.9141 33.0718L21.4164 34.5334V31.5478L18.9141 30.0833V33.0718Z" fill="#202334"/>
<path d="M14.397 30.8897V26.9784L17.6893 28.9043V32.8156L14.397 30.8897Z" fill="white"/>
<path d="M14.7935 30.6607L17.2958 32.1222V29.1366L14.7935 27.6721V30.6607Z" fill="#202334"/>
<path d="M0.983398 16.5096L27.9832 32.3095V31.7915L0.983398 15.9917V16.5096Z" fill="#E0E0E0"/>
<path d="M27.9832 31.7917L0.983398 15.9919L27.9832 0.194969L54.983 15.9919L27.9832 31.7917Z" fill="white"/>
<path d="M3.92334 15.9921L27.9832 1.91564L52.0431 15.9921L27.9832 30.0715L3.92334 15.9921Z" fill="#E0E0E0"/>
<path d="M3.92334 15.9917L5.83532 17.1109L27.9127 4.19538V1.95696L3.92334 15.9917Z" fill="#C2C2C2"/>
<path d="M27.9831 1.91564L27.9126 1.95731V4.19573L27.9831 4.15406L50.128 17.1113L52.0429 15.9921L27.9831 1.91564Z" fill="#959595"/>
<path d="M28.9383 30.0827L28.2216 29.661L28.2041 24.8491L28.9243 25.2708L28.9383 30.0827Z" fill="#FF6E91"/>
<path d="M28.9243 25.2712L28.2041 24.8496L48.8982 12.7418L49.6149 13.1635L28.9243 25.2712Z" fill="#C8274E"/>
<path d="M49.6154 13.1635L49.6328 17.9754L28.9388 30.0831L28.9248 25.2712L49.6154 13.1635Z" fill="#F84671"/>
<path d="M33.5741 23.695L33.1441 23.9466L32.9483 25.6332L32.6896 24.2123L32.3294 24.4249L32.0812 26.1364L31.8749 24.6907L31.4414 24.9423L31.833 27.2136L32.27 26.9584L32.5112 25.3427L32.763 26.6679L33.2 26.4128L33.5741 23.695Z" fill="white"/>
<path d="M34.2766 24.8534L34.4724 23.8471L34.6752 24.6196L34.2766 24.8534ZM34.6717 23.0534L34.2731 23.2873L33.6123 26.1751L34.0668 25.9094L34.1822 25.3318L34.773 24.9881L34.8919 25.431L35.3534 25.1617L34.6717 23.0534Z" fill="white"/>
<path d="M35.9798 23.4508L35.9763 22.7067L36.2351 22.5543C36.277 22.5295 36.3155 22.5153 36.3469 22.5153C36.3784 22.5153 36.4029 22.5259 36.4239 22.5472C36.4448 22.5685 36.4588 22.6004 36.4693 22.6393C36.4798 22.6783 36.4833 22.7279 36.4833 22.7846C36.4833 22.898 36.4623 22.9972 36.4204 23.0893C36.3749 23.1815 36.312 23.2523 36.2246 23.3055L35.9798 23.4508ZM36.2386 22.1362L35.5498 22.5401L35.5568 25.0346L35.9868 24.7831L35.9833 23.8689L36.1966 23.7449L36.5217 24.4677L36.9867 24.1949V24.1701L36.6057 23.3728C36.6546 23.3126 36.6966 23.2488 36.735 23.1885C36.7735 23.1248 36.8049 23.0539 36.8329 22.983C36.8609 22.9086 36.8784 22.8342 36.8923 22.7527C36.9028 22.6748 36.9133 22.5897 36.9098 22.4976C36.9098 22.3736 36.8958 22.2779 36.8644 22.1999C36.8329 22.1255 36.7875 22.0724 36.728 22.044C36.6721 22.0157 36.5987 22.0086 36.5148 22.0228C36.4378 22.0334 36.3434 22.0759 36.2386 22.1362Z" fill="white"/>
<path d="M38.441 20.8463L37.2139 21.5656L37.2209 24.0602L38.4515 23.3409L38.448 22.9227L37.6509 23.3905L37.6474 22.7279L38.3257 22.3345L38.3222 21.9271L37.6474 22.3204V21.7322L38.441 21.268V20.8463Z" fill="white"/>
<path d="M40.1962 19.822L39.7627 20.0735L39.7662 21.0799L39.1264 21.4555L39.1229 20.4456L38.6929 20.7007L38.6999 23.1953L39.1299 22.9437V21.8736L39.7662 21.5015L39.7697 22.5681L40.2032 22.3165L40.1962 19.822Z" fill="white"/>
<path d="M41.287 21.2923C41.231 21.3242 41.1821 21.3419 41.1401 21.3454C41.0982 21.3454 41.0632 21.3277 41.0353 21.2958C41.0038 21.2604 40.9828 21.2073 40.9688 21.1364C40.9548 21.0655 40.9444 20.9698 40.9444 20.8565V20.4383C40.9444 20.3179 40.9513 20.2116 40.9653 20.1194C40.9793 20.0273 41.0003 19.9458 41.0318 19.8749C41.0597 19.8041 41.0947 19.7474 41.1366 19.6942C41.1786 19.6446 41.2275 19.6021 41.2835 19.5702C41.3394 19.5383 41.3884 19.5206 41.4303 19.5242C41.4723 19.5242 41.5107 19.5419 41.5352 19.5808C41.5667 19.6198 41.5877 19.673 41.6016 19.7474C41.6156 19.8218 41.6226 19.921 41.6226 20.0415V20.4596C41.6226 20.573 41.6191 20.6757 41.6051 20.7643C41.5912 20.8529 41.5702 20.9309 41.5422 21.0017C41.5142 21.0691 41.4793 21.1293 41.4373 21.1754C41.3884 21.2214 41.3429 21.2604 41.287 21.2923ZM41.2765 19.1521C41.1646 19.2194 41.0562 19.3045 40.9618 19.4072C40.8674 19.5064 40.787 19.6234 40.7171 19.758C40.6507 19.8891 40.5982 20.0344 40.5633 20.1903C40.5248 20.3498 40.5073 20.5198 40.5073 20.697V21.1116C40.5073 21.2852 40.5283 21.4305 40.5668 21.5403C40.6052 21.6502 40.6577 21.7317 40.7241 21.7777C40.794 21.8273 40.8744 21.8451 40.9723 21.8309C41.0667 21.8203 41.1716 21.7813 41.287 21.7175C41.4024 21.6502 41.5072 21.5651 41.6016 21.4624C41.696 21.3632 41.7764 21.2498 41.8429 21.1222C41.9128 20.9946 41.9617 20.8529 42.0002 20.7006C42.0387 20.5482 42.0561 20.3816 42.0561 20.2045V19.7899C42.0561 19.6127 42.0352 19.4639 41.9967 19.3505C41.9583 19.2371 41.9058 19.1556 41.8394 19.1025C41.7695 19.0493 41.689 19.0281 41.5946 19.0387C41.4968 19.0458 41.3919 19.0848 41.2765 19.1521Z" fill="white"/>
<path d="M43.7553 17.7383L43.3218 17.9899L43.3253 19.7049C43.3253 19.7864 43.3218 19.8537 43.3078 19.9139C43.2973 19.9742 43.2798 20.0238 43.2554 20.0663C43.2344 20.1123 43.2064 20.1478 43.1715 20.1761C43.1365 20.208 43.098 20.2364 43.0526 20.2612C43.0071 20.286 42.9722 20.3037 42.9372 20.3108C42.9022 20.3214 42.8743 20.3179 42.8498 20.3001C42.8288 20.286 42.8113 20.2541 42.7974 20.2116C42.7834 20.1655 42.7799 20.1053 42.7799 20.0238L42.7764 18.3088L42.3394 18.5639L42.3429 20.2789C42.3429 20.4242 42.3603 20.5376 42.3988 20.6191C42.4338 20.7005 42.4792 20.7572 42.5456 20.7856C42.6086 20.8139 42.682 20.821 42.7694 20.8033C42.8568 20.7785 42.9512 20.7431 43.0561 20.6828C43.161 20.6226 43.2519 20.5517 43.3393 20.4702C43.4267 20.3887 43.5001 20.2966 43.5595 20.1938C43.6225 20.0911 43.6714 19.9812 43.7029 19.8572C43.7378 19.7332 43.7553 19.5986 43.7553 19.4533V17.7383Z" fill="white"/>
<path d="M44.7515 17.118C44.6537 17.1747 44.5628 17.2456 44.4788 17.3271C44.3949 17.4121 44.325 17.5007 44.2656 17.5964C44.2026 17.692 44.1572 17.7912 44.1257 17.8975C44.0908 18.0074 44.0768 18.1101 44.0768 18.2129C44.0768 18.3227 44.0908 18.4078 44.1257 18.468C44.1572 18.5318 44.2026 18.5779 44.2586 18.6062C44.3145 18.6346 44.3809 18.6523 44.4509 18.6558C44.5243 18.6594 44.6012 18.6523 44.6816 18.6417C44.748 18.6346 44.804 18.6346 44.8459 18.6381C44.8844 18.6452 44.9194 18.6523 44.9403 18.67C44.9613 18.6877 44.9788 18.7125 44.9858 18.7409C44.9893 18.7728 44.9963 18.8082 44.9963 18.8543C44.9963 18.8932 44.9928 18.9358 44.9858 18.9747C44.9788 19.0102 44.9648 19.0491 44.9473 19.0846C44.9299 19.12 44.9054 19.1554 44.8774 19.1873C44.8494 19.2192 44.8145 19.244 44.7725 19.2688C44.7201 19.3007 44.6746 19.3184 44.6362 19.3291C44.5977 19.3362 44.5662 19.3291 44.5383 19.3149C44.5138 19.2972 44.4928 19.2653 44.4823 19.2228C44.4684 19.1767 44.4614 19.1165 44.4614 19.0421L44.0278 19.2972C44.0278 19.4389 44.0523 19.5488 44.0943 19.6232C44.1362 19.7011 44.1922 19.7543 44.2621 19.7791C44.3355 19.8074 44.4124 19.8074 44.5033 19.7897C44.5907 19.7684 44.6816 19.733 44.776 19.6799C44.8774 19.6196 44.9683 19.5488 45.0487 19.4708C45.1291 19.3928 45.2026 19.3078 45.2585 19.2121C45.3144 19.12 45.3599 19.0243 45.3913 18.918C45.4193 18.8153 45.4368 18.709 45.4333 18.5991C45.4333 18.4964 45.4193 18.4113 45.3948 18.3405C45.3739 18.2731 45.3319 18.22 45.283 18.1881C45.234 18.1527 45.1676 18.1314 45.0942 18.1243C45.0208 18.1172 44.9333 18.1172 44.832 18.135C44.7865 18.135 44.7411 18.1385 44.7026 18.1385C44.6641 18.1349 44.6292 18.1314 44.5977 18.1172C44.5697 18.1031 44.5488 18.0853 44.5348 18.0641C44.5208 18.0393 44.5138 18.0038 44.5138 17.9649C44.5138 17.9259 44.5173 17.8834 44.5278 17.8444C44.5383 17.8019 44.5523 17.7629 44.5732 17.7275C44.5942 17.692 44.6187 17.6566 44.6467 17.6212C44.6746 17.5893 44.7131 17.5609 44.7515 17.5397C44.797 17.5149 44.832 17.5007 44.8634 17.5007C44.8949 17.5007 44.9194 17.5113 44.9438 17.529C44.9648 17.5503 44.9788 17.5786 44.9858 17.6176C44.9963 17.6566 44.9998 17.6991 44.9998 17.7523L45.4298 17.5007C45.4298 17.3873 45.4158 17.2952 45.3809 17.2172C45.3494 17.1428 45.3039 17.0861 45.2445 17.0542C45.1886 17.0223 45.1151 17.0082 45.0312 17.0188C44.9473 17.0259 44.8564 17.0578 44.7515 17.118Z" fill="white"/>
<path d="M46.9366 15.8746L45.7095 16.5939L45.7165 19.0884L46.9471 18.3691V17.951L46.1465 18.4152V17.7561L46.8178 17.3628V16.9553L46.1465 17.3486L46.143 16.7604L46.9366 16.2962V15.8746Z" fill="white"/>
<g clip-path="url(#clip2_414_3005)">
<path d="M48.4927 41.8425L53.6231 38.8705L53.6356 32.1406L48.5052 35.1127L48.4927 41.8425Z" fill="#F8B84E"/>
<path d="M41.9651 31.3689L41.9526 38.0987L48.4907 41.8502L48.5032 35.1225L41.9651 31.3689Z" fill="#C57935"/>
<path d="M41.9526 31.3696L47.1019 28.6053L53.6399 32.151L48.4907 35.1231L41.9526 31.3696Z" fill="#FFDB9C"/>
<path d="M44.4185 30.054L45.0181 29.7318L51.4645 33.4043L50.894 33.7348L44.4185 30.054Z" fill="white"/>
<path d="M51.4641 33.4039V34.7008L51.4037 34.6551L51.3725 34.7985L51.26 34.7174L51.2329 34.838L51.1413 34.7652L51.1226 34.8796L51.058 34.8131L51.0414 34.9253L50.9768 34.7673L50.8956 34.9253L50.8936 33.7344L51.4641 33.4039Z" fill="#CFD8DC"/>
</g>
<g clip-path="url(#clip3_414_3005)">
<path d="M40.5024 41.2159L43.0479 39.7224L43.0541 36.3404L40.5086 37.834L40.5024 41.2159Z" fill="#F8B84E"/>
<path d="M37.264 35.9534L37.2578 39.3353L40.5017 41.2206L40.5079 37.8397L37.264 35.9534Z" fill="#C57935"/>
<path d="M37.2578 35.9531L39.8126 34.5639L43.0565 36.3458L40.5017 37.8393L37.2578 35.9531Z" fill="#FFDB9C"/>
<path d="M38.4814 35.2917L38.779 35.1298L41.9774 36.9753L41.6943 37.1414L38.4814 35.2917Z" fill="white"/>
<path d="M41.9769 36.9757V37.6274L41.947 37.6044L41.9315 37.6765L41.8757 37.6357L41.8622 37.6963L41.8168 37.6598L41.8075 37.7172L41.7755 37.6838L41.7672 37.7402L41.7352 37.6608L41.6949 37.7402L41.6938 37.1417L41.9769 36.9757Z" fill="#CFD8DC"/>
</g>
<g clip-path="url(#clip4_414_3005)">
<path d="M44.8315 43.4654L47.5303 41.902L47.5369 38.3619L44.8381 39.9253L44.8315 43.4654Z" fill="#F8B84E"/>
<path d="M41.3982 37.9565L41.3916 41.4965L44.8308 43.4699L44.8374 39.9309L41.3982 37.9565Z" fill="#C57935"/>
<path d="M41.3916 37.956L44.1002 36.5019L47.5394 38.3671L44.8308 39.9305L41.3916 37.956Z" fill="#FFDB9C"/>
<path d="M42.688 37.2641L43.0034 37.0947L46.3944 39.0265L46.0943 39.2003L42.688 37.2641Z" fill="white"/>
<path d="M46.3953 39.0264V39.7086L46.3636 39.6846L46.3471 39.76L46.288 39.7174L46.2737 39.7808L46.2256 39.7425L46.2157 39.8026L46.1817 39.7676L46.173 39.8267L46.139 39.7436L46.0963 39.8267L46.0952 39.2002L46.3953 39.0264Z" fill="#CFD8DC"/>
</g>
<path d="M52.0953 24.181L31.4688 36.2512V37.6502L52.0953 25.58V24.181Z" fill="#E0E0E0"/>
<path d="M52.0953 25.5799L31.4688 37.6501V39.0491L52.0953 26.9789V25.5799Z" fill="#E0E0E0"/>
<path d="M52.0953 26.9788L31.4688 39.0489V40.4479L52.0953 28.3778V26.9788Z" fill="#E0E0E0"/>
<path d="M51.8569 25.6771L31.8081 37.6744" stroke="#CAC9C9" stroke-width="0.325559"/>
<path d="M51.777 27.2578L31.8481 39.1336" stroke="#CAC9C9" stroke-width="0.325559"/>
<path d="M31.4461 54.1468L30.3301 54.7987V36.9181L31.4461 36.2663V54.1468Z" fill="#324155"/>
<path d="M31.4461 36.2665L30.7648 36.6654L30.3301 37.3589V38.2728L31.4461 36.4928V36.2665Z" fill="#FFC114"/>
<path d="M31.4461 37.4333L30.3301 39.2133V40.1272L31.4461 38.3471V37.4333Z" fill="#FFC114"/>
<path d="M31.4461 39.2875L30.3301 41.0675V41.9813L31.4461 40.2013V39.2875Z" fill="#FFC114"/>
<path d="M31.4461 41.1423L30.3301 42.9223V43.8391L31.4461 42.0591V41.1423Z" fill="#FFC114"/>
<path d="M31.4461 42.9964L30.3301 44.7794V45.6932L31.4461 43.9132V42.9964Z" fill="#FFC114"/>
<path d="M31.4461 44.8538L30.3301 46.6338V47.5476L31.4461 45.7676V44.8538Z" fill="#FFC114"/>
<path d="M31.4461 46.7086L30.3301 48.4886V49.4024L31.4461 47.6224V46.7086Z" fill="#FFC114"/>
<path d="M31.4461 48.5627L30.3301 50.3427V51.2595L31.4461 49.4765V48.5627Z" fill="#FFC114"/>
<path d="M31.4461 50.4175L30.3301 52.2005V53.1143L31.4461 51.3343V50.4175Z" fill="#FFC114"/>
<path d="M31.4461 52.2748L30.3301 54.0548V54.799L30.4975 54.7037L31.4461 53.1887V52.2748Z" fill="#FFC114"/>
<path d="M53.2323 41.3976L52.1191 42.0495V24.169L53.2323 23.5171V41.3976Z" fill="#324155"/>
<path d="M53.2323 23.5173L52.5538 23.9162L52.1191 24.6098V25.5236L53.2323 23.7436V23.5173Z" fill="#FFC114"/>
<path d="M53.2323 24.6841L52.1191 26.4642V27.378L53.2323 25.598V24.6841Z" fill="#FFC114"/>
<path d="M53.2323 26.5383L52.1191 28.3183V29.2321L53.2323 27.4521V26.5383Z" fill="#FFC114"/>
<path d="M53.2323 28.3931L52.1191 30.1731V31.0899L53.2323 29.3069V28.3931Z" fill="#FFC114"/>
<path d="M53.2323 30.2472L52.1191 32.0272V32.944L53.2323 31.164V30.2472Z" fill="#FFC114"/>
<path d="M53.2323 32.1046L52.1191 33.8846V34.7984L53.2323 33.0184V32.1046Z" fill="#FFC114"/>
<path d="M53.2323 33.9594L52.1191 35.7394V36.6532L53.2323 34.8732V33.9594Z" fill="#FFC114"/>
<path d="M53.2323 35.8135L52.1191 37.5935V38.5074L53.2323 36.7273V35.8135Z" fill="#FFC114"/>
<path d="M53.2323 37.6683L52.1191 39.4484V40.3652L53.2323 38.5822V37.6683Z" fill="#FFC114"/>
<path d="M53.2323 39.5225L52.1191 41.3055V42.0496L52.2865 41.9514L53.2323 40.4393V39.5225Z" fill="#FFC114"/>
</g>
<defs>
<clipPath id="clip0_414_3005">
<rect width="53.9996" height="55.9961" fill="white" transform="translate(0.983398 0.195221)"/>
</clipPath>
<clipPath id="clip1_414_3005">
<rect width="10.4179" height="11.8069" fill="white" transform="translate(26.0518 41.291)"/>
</clipPath>
<clipPath id="clip2_414_3005">
<rect width="11.6872" height="13.2455" fill="white" transform="translate(41.9526 28.6042)"/>
</clipPath>
<clipPath id="clip3_414_3005">
<rect width="5.79866" height="6.6563" fill="white" transform="translate(37.2583 34.5636)"/>
</clipPath>
<clipPath id="clip4_414_3005">
<rect width="6.14781" height="6.96752" fill="white" transform="translate(41.3911 36.5025)"/>
</clipPath>
</defs>
</svg>
