<svg width="60" height="57" viewBox="0 0 60 57" fill="none" xmlns="http://www.w3.org/2000/svg">
<rect x="4.38184" y="0.660553" width="55.2809" height="55.9992" rx="27.6404" fill="#B5C1FF"/>
<g clip-path="url(#clip0_397_2117)">
<path d="M43.3277 20.7645H45.319C45.6902 20.7645 45.9897 21.0703 45.9897 21.4462V22.7109C45.9897 23.0882 45.6888 23.3927 45.319 23.3927H43.7074V22.8896C43.2223 22.8896 42.7554 22.6938 42.4123 22.3451L42.1704 22.0993L43.3277 20.7645Z" fill="#E09069"/>
<path d="M43.3286 20.7645L42.1715 22.0976L37.2015 20.9245L37.889 19.0556L43.3286 20.7645Z" fill="#E09069"/>
<path d="M37.8884 19.0556L38.1316 19.1313L38.209 21.1621L37.2007 20.9249L37.8884 19.0556Z" fill="#CE7C5B"/>
<path d="M28.3716 11.8271C29.0269 11.3041 29.9717 11.3984 30.5158 12.0385L35.6718 18.1173L36.604 18.4359L35.7379 20.7894L35.2486 20.6822C34.4753 20.5122 33.7694 20.1092 33.2239 19.5262L28.2043 14.1662C27.5702 13.4904 27.6475 12.4044 28.3716 11.8271Z" fill="#5297F4"/>
<path d="M35.7088 20.8647L35.7369 20.7904L36.603 18.4369L36.6888 18.204C36.738 18.0711 36.8843 18.0025 37.015 18.0525L37.8671 18.3769C37.9978 18.4269 38.0653 18.5755 38.0161 18.7084L37.9472 18.897L37.1373 21.0976L37.0375 21.3691C36.9883 21.502 36.8421 21.5706 36.7113 21.5206L35.8593 21.1962C35.7271 21.1462 35.6596 20.9976 35.7088 20.8647Z" fill="#3985D8"/>
<path d="M30.1897 12.2929C29.7103 11.727 28.9102 11.5756 28.262 11.9257C28.2972 11.8914 28.3337 11.8585 28.3731 11.8271C29.0283 11.3041 29.9732 11.3984 30.5173 12.0385L35.6733 18.1173L36.6055 18.4359L36.4663 18.8132L35.4202 18.4545L30.1897 12.2929Z" fill="#5DABFF"/>
<path d="M30.1652 24.4752L40.9109 27.3814C42.7681 27.8844 43.6356 30.0548 42.6458 31.7309L36.3823 42.3458L32.8942 40.7726L37.9064 31.0864L27.6992 28.9189C25.7253 28.4988 24.5612 26.4127 25.2234 24.4766H30.1652V24.4752Z" fill="#202334"/>
<path d="M33.3457 41.4971L33.6073 41.0941L35.5903 41.9874L35.1234 42.8507L32.9139 42.2204C33.0489 41.9745 33.1924 41.733 33.3457 41.4971Z" fill="#E09069"/>
<path d="M33.8896 43.2349L34.0738 43.7123L33.8277 43.5365C33.7307 43.4664 33.6139 43.4293 33.4944 43.4293H32.3369C32.5057 43.0148 32.697 42.6117 32.9135 42.22L35.123 42.8504L34.9894 43.0977H33.9824C33.9121 43.0977 33.8643 43.1691 33.8896 43.2349Z" fill="white"/>
<path d="M36.4309 45.292H31.7491L31.8349 44.9563C31.967 44.4347 32.1372 43.926 32.3396 43.4302H33.4967C33.6162 43.4302 33.7329 43.4674 33.8299 43.5374L34.076 43.7132L33.8918 43.2359C33.8665 43.1702 33.9143 43.0987 33.9846 43.0987H34.9912L35.735 43.8089C36.0724 44.1304 36.5167 44.3104 36.9792 44.3104H37.4868C37.9831 44.3104 38.4161 44.5919 38.6396 45.0077L37.6738 45.182C37.2618 45.2549 36.8471 45.292 36.4309 45.292Z" fill="#422C4F"/>
<path d="M36.4311 45.2921C36.8472 45.2921 37.262 45.2549 37.6726 45.1806L38.6385 45.0063C38.7327 45.182 38.7904 45.3835 38.7988 45.5964L37.3239 45.7322C37.0905 45.7536 36.8571 45.765 36.6223 45.765H31.6308L31.7503 45.2921H36.4311Z" fill="white"/>
<path d="M33.6073 41.0941L35.5903 41.9874L35.3751 42.3834L33.2163 41.7001L33.6073 41.0941Z" fill="#422C4F"/>
<path d="M46.746 23.4964H47.2536L48.5597 28.1902C49.5818 31.8652 49.167 35.7945 47.411 39.1623L46.7741 39.4066L46.746 23.4964Z" fill="#C8274E"/>
<path d="M48.5588 28.1916L47.2527 23.4978H47.7279L50.4076 33.6069C50.6495 34.5171 51.4607 35.1501 52.3886 35.1501C52.4589 35.1501 52.5151 35.2072 52.5151 35.2787V37.2076L47.4088 39.1637C49.1676 35.7959 49.5809 31.8652 48.5588 28.1916Z" fill="#F84671"/>
<path d="M52.8667 54.6096C48.9269 54.6096 45.733 51.3637 45.733 47.3596C45.733 43.3556 48.9269 40.1096 52.8667 40.1096C56.8066 40.1096 60.0005 43.3556 60.0005 47.3596C60.0005 51.3637 56.8066 54.6096 52.8667 54.6096Z" fill="#202334"/>
<path d="M52.8662 52.5814C50.0288 52.5814 47.7286 50.2437 47.7286 47.36C47.7286 44.4763 50.0288 42.1386 52.8662 42.1386C55.7037 42.1386 58.0039 44.4763 58.0039 47.36C58.0039 50.2437 55.7037 52.5814 52.8662 52.5814Z" fill="#495375"/>
<path d="M52.8663 51.6225C50.5499 51.6225 48.6721 49.7141 48.6721 47.3599C48.6721 45.0058 50.5499 43.0974 52.8663 43.0974C55.1827 43.0974 57.0605 45.0058 57.0605 47.3599C57.0605 49.7141 55.1827 51.6225 52.8663 51.6225Z" fill="#C7D2D7"/>
<path d="M52.8664 43.0974C53.658 43.0974 54.399 43.3203 55.0317 43.709C54.7407 43.6347 54.4342 43.5932 54.1206 43.5932C52.0734 43.5932 50.4143 45.2794 50.4143 47.3599C50.4143 49.4405 52.0734 51.1266 54.1206 51.1266C54.4356 51.1266 54.7407 51.0866 55.0317 51.0109C54.399 51.3981 53.6594 51.6225 52.8664 51.6225C50.5493 51.6225 48.6722 49.7134 48.6722 47.3599C48.6708 45.0064 50.5493 43.0974 52.8664 43.0974Z" fill="#99A3B0"/>
<path d="M52.8657 49.2408C51.8436 49.2408 51.0151 48.3987 51.0151 47.36C51.0151 46.3213 51.8436 45.4793 52.8657 45.4793C53.8878 45.4793 54.7163 46.3213 54.7163 47.36C54.7163 48.3987 53.8878 49.2408 52.8657 49.2408Z" fill="#99A3B0"/>
<path d="M51.9804 48.2604C51.491 47.763 51.491 46.9567 51.9804 46.4593C52.4698 45.962 53.2632 45.962 53.7526 46.4593C54.242 46.9567 54.242 47.763 53.7526 48.2604C53.2632 48.7577 52.4698 48.7577 51.9804 48.2604Z" fill="#A34262"/>
<path d="M16.2207 54.6096C12.2809 54.6096 9.08698 51.3637 9.08698 47.3596C9.08698 43.3556 12.2809 40.1096 16.2207 40.1096C20.1606 40.1096 23.3545 43.3556 23.3545 47.3596C23.3545 51.3637 20.1606 54.6096 16.2207 54.6096Z" fill="#202334"/>
<path d="M16.2202 52.5814C13.3828 52.5814 11.0826 50.2437 11.0826 47.36C11.0826 44.4763 13.3828 42.1386 16.2202 42.1386C19.0577 42.1386 21.3579 44.4763 21.3579 47.36C21.3579 50.2437 19.0577 52.5814 16.2202 52.5814Z" fill="#495375"/>
<path d="M16.2203 51.6225C13.9039 51.6225 12.0261 49.7141 12.0261 47.3599C12.0261 45.0058 13.9039 43.0974 16.2203 43.0974C18.5367 43.0974 20.4146 45.0058 20.4146 47.3599C20.4146 49.7141 18.5367 51.6225 16.2203 51.6225Z" fill="#C7D2D7"/>
<path d="M16.2204 43.0974C17.012 43.0974 17.753 43.3203 18.3857 43.709C18.0947 43.6347 17.7882 43.5932 17.4746 43.5932C15.4274 43.5932 13.7683 45.2794 13.7683 47.3599C13.7683 49.4405 15.4274 51.1266 17.4746 51.1266C17.7896 51.1266 18.0947 51.0866 18.3857 51.0109C17.7544 51.3981 17.0134 51.6225 16.2204 51.6225C13.9033 51.6225 12.0262 49.7134 12.0262 47.3599C12.0248 45.0064 13.9033 43.0974 16.2204 43.0974Z" fill="#99A3B0"/>
<path d="M16.2212 49.2408C15.1991 49.2408 14.3706 48.3987 14.3706 47.36C14.3706 46.3213 15.1991 45.4793 16.2212 45.4793C17.2432 45.4793 18.0718 46.3213 18.0718 47.36C18.0718 48.3987 17.2432 49.2408 16.2212 49.2408Z" fill="#99A3B0"/>
<path d="M15.3344 48.2606C14.845 47.7633 14.845 46.9569 15.3344 46.4596C15.8238 45.9623 16.6172 45.9623 17.1066 46.4596C17.596 46.9569 17.596 47.7633 17.1066 48.2606C16.6172 48.758 15.8238 48.758 15.3344 48.2606Z" fill="#A34262"/>
<path d="M52.5221 37.7578C48.8467 37.875 45.7042 40.4899 44.727 44.0909L44.5681 44.6768L44.3951 44.7625L44.727 43.5422C45.7042 39.9398 48.8481 37.3262 52.5221 37.2091C52.6163 37.2062 52.7119 37.2048 52.8075 37.2048C54.3893 37.2048 55.9064 37.6235 57.2407 38.4065L56.9975 38.8181C55.7236 38.1236 54.2937 37.7535 52.8075 37.7535C52.7119 37.7521 52.6163 37.7535 52.5221 37.7578Z" fill="white"/>
<path d="M51.8519 41.0387L44.5686 44.6768L44.7275 44.0909C45.7047 40.4886 48.8486 37.875 52.5226 37.7578C52.6168 37.755 52.7124 37.7535 52.808 37.7535C54.2942 37.7535 55.7242 38.1236 56.998 38.8181L55.6904 41.0387H51.8519Z" fill="white"/>
<path d="M44.0515 45.3107H47.1741C47.1741 45.3107 47.8377 42.5831 51.0925 41.4871C54.575 40.314 57.0607 42.7688 57.0607 42.7688L59.6519 41.8758L58.3753 40.5784C56.899 39.0781 54.897 38.2351 52.8091 38.2351C50.1196 38.2351 47.617 39.6296 46.1703 41.9344L44.0515 45.3107Z" fill="#F84671"/>
<path d="M46.7466 23.4964L48.0528 28.1902C49.1002 31.9538 48.6404 35.986 46.7748 39.4066L46.1224 40.6026C44.2764 43.9861 40.77 46.0865 36.9627 46.0865H4.82847L5.97993 41.84C7.11594 37.6506 9.76614 34.0528 13.4019 31.7666L15.4827 30.4578H33.3593V31.2508C33.3593 31.778 33.0289 32.2467 32.5368 32.4139C30.6247 33.0683 29.2511 34.7815 29.0065 36.8176C28.624 39.9939 31.0634 42.7944 34.2127 42.7944H36.8263C39.3317 42.7944 41.6642 41.4928 43.0068 39.3423L44.2188 37.4034C45.5558 35.2644 46.0127 32.6782 45.4925 30.2006L44.0852 23.4964H46.7466Z" fill="#F84671"/>
<path d="M15.4823 30.4578H34.8027V28.1273H19.3964C18.3251 28.1273 17.2988 28.5674 16.5508 29.3461L15.4823 30.4578Z" fill="#202334"/>
<path d="M26.7145 46.408H35.3891C39.3103 46.408 42.9264 44.2433 44.8258 40.7583L45.4782 39.5624C47.3973 36.0431 47.8613 31.9738 46.7843 28.103C46.4384 26.8571 46.5987 25.4968 47.2258 24.3709C47.3115 24.2165 47.2581 24.0194 47.1063 23.9322C46.953 23.845 46.7604 23.8993 46.6746 24.0537C45.9646 25.3296 45.7833 26.8685 46.1755 28.2788C47.2061 31.9852 46.7632 35.8817 44.9257 39.2509L44.2733 40.4468C42.4849 43.7275 39.0812 45.765 35.3906 45.765H26.7159C26.5401 45.765 26.3981 45.9093 26.3981 46.0879C26.3981 46.2651 26.5401 46.408 26.7145 46.408Z" fill="#FF6E91"/>
<path d="M26.4014 44.8248H6.52556L6.82924 44.9792C7.3157 45.2264 7.97509 45.3649 8.66259 45.3649H24.3079C25.136 45.3649 25.9135 45.1635 26.4014 44.8248Z" fill="#C8274E"/>
<path d="M15.574 43.9533H19.8687C19.9657 43.9533 20.0444 43.8733 20.0444 43.7747C20.0444 43.6761 19.9657 43.596 19.8687 43.596H15.574C15.477 43.596 15.3982 43.6761 15.3982 43.7747C15.3982 43.8733 15.477 43.9533 15.574 43.9533Z" fill="#495375"/>
<path d="M15.9436 43.2389H19.5C19.597 43.2389 19.6758 43.1588 19.6758 43.0602C19.6758 42.9616 19.597 42.8816 19.5 42.8816H15.9436C15.8466 42.8816 15.7679 42.9616 15.7679 43.0602C15.7679 43.1588 15.8466 43.2389 15.9436 43.2389Z" fill="#495375"/>
<path d="M16.4407 42.5244H19.0025C19.0995 42.5244 19.1782 42.4444 19.1782 42.3458C19.1782 42.2472 19.0995 42.1672 19.0025 42.1672H16.4407C16.3436 42.1672 16.2649 42.2472 16.2649 42.3458C16.2649 42.443 16.3436 42.5244 16.4407 42.5244Z" fill="#495375"/>
<path d="M17.0303 41.8086H18.4111C18.5082 41.8086 18.5869 41.7285 18.5869 41.6299C18.5869 41.5313 18.5082 41.4513 18.4111 41.4513H17.0303C16.9332 41.4513 16.8545 41.5313 16.8545 41.6299C16.8545 41.7285 16.9332 41.8086 17.0303 41.8086Z" fill="#495375"/>
<path d="M15.9436 44.6692H19.5C19.597 44.6692 19.6758 44.5891 19.6758 44.4905C19.6758 44.3919 19.597 44.3119 19.5 44.3119H15.9436C15.8466 44.3119 15.7679 44.3919 15.7679 44.4905C15.7679 44.5891 15.8466 44.6692 15.9436 44.6692Z" fill="#495375"/>
<path d="M13.0808 34.3114C15.1264 33.0483 17.4743 32.3796 19.8672 32.3796H20.67C24.7473 32.3796 28.2045 35.7688 28.2017 39.9125C28.2003 41.79 27.5212 43.506 26.4006 44.8234H20.7938H15.1869H6.52345L7.28546 42.0686C8.18105 38.8308 10.252 36.0589 13.0808 34.3114Z" fill="#FF6E91"/>
<path d="M14.2266 37.1262C15.7239 36.2018 17.4434 35.7117 19.1966 35.7117H19.7843C22.7705 35.7117 25.3012 38.1936 25.2998 41.2284C25.2984 42.603 24.8021 43.8604 23.981 44.8248H19.8757H15.7703H9.42671L9.98487 42.8073C10.64 40.4354 12.1556 38.405 14.2266 37.1262Z" fill="#F84671"/>
<path d="M14.1359 43.7118H20.8268C20.9322 43.7118 21.0166 43.6246 21.0166 43.5189C21.0166 43.4131 20.9308 43.326 20.8268 43.326H14.1359C14.0305 43.326 13.9461 43.4131 13.9461 43.5189C13.9461 43.6246 14.0319 43.7118 14.1359 43.7118Z" fill="#C8274E"/>
<path d="M14.3425 42.9459H21.0333C21.1388 42.9459 21.2231 42.8587 21.2231 42.753C21.2231 42.6459 21.1374 42.5601 21.0333 42.5601H14.3425C14.237 42.5601 14.1527 42.6473 14.1527 42.753C14.1527 42.8602 14.237 42.9459 14.3425 42.9459Z" fill="#C8274E"/>
<path d="M14.549 42.1815H21.2399C21.3453 42.1815 21.4297 42.0943 21.4297 41.9886C21.4297 41.8814 21.3439 41.7957 21.2399 41.7957H14.549C14.4436 41.7957 14.3592 41.8828 14.3592 41.9886C14.3578 42.0943 14.4436 42.1815 14.549 42.1815Z" fill="#C8274E"/>
<path d="M14.7541 41.4156H21.445C21.5504 41.4156 21.6348 41.3284 21.6348 41.2227C21.6348 41.117 21.549 41.0298 21.445 41.0298H14.7541C14.6486 41.0298 14.5643 41.117 14.5643 41.2227C14.5643 41.3284 14.65 41.4156 14.7541 41.4156Z" fill="#C8274E"/>
<path d="M14.9606 40.6498H21.6515C21.757 40.6498 21.8413 40.5626 21.8413 40.4569C21.8413 40.3497 21.7555 40.264 21.6515 40.264H14.9606C14.8552 40.264 14.7708 40.3511 14.7708 40.4569C14.7708 40.5626 14.8552 40.6498 14.9606 40.6498Z" fill="#C8274E"/>
<path d="M33.3594 30.4578H15.4828C15.8779 30.8593 16.415 31.0865 16.9745 31.0865H31.7046C32.3119 31.085 32.8996 30.8621 33.3594 30.4578Z" fill="#C8274E"/>
<path d="M44.0826 23.4964H47.7296H49.4097V20.0272H48.2526C47.26 20.0272 46.28 20.2487 45.3802 20.6744L44.524 21.0802C43.9743 21.3403 43.6861 21.9633 43.8407 22.5605L44.0826 23.4964Z" fill="#F84671"/>
<path d="M49.4106 20.0272H49.9702V23.4967H49.4106V20.0272Z" fill="white"/>
<path d="M49.9704 20.0272H50.2559V23.4967H49.9704V20.0272Z" fill="white"/>
<path d="M7.06099 29.9606C6.98646 29.8848 6.98646 29.7619 7.06099 29.6876C7.13552 29.6118 7.25505 29.6118 7.32958 29.6876L8.92285 31.3068H8.38426L7.06099 29.9606Z" fill="#C7D2D7"/>
<path d="M8.92414 31.3065L11.5056 33.93C11.5802 34.0058 11.5802 34.1272 11.5056 34.2029C11.4691 34.2401 11.4199 34.2601 11.3707 34.2601C11.3214 34.2601 11.2736 34.2415 11.2357 34.2029L8.38563 31.3065H8.92414Z" fill="white"/>
<path d="M16.7177 32.0423H27.4226C27.5885 32.0423 27.7389 31.9209 27.7558 31.7537C27.7741 31.5608 27.6264 31.3979 27.4409 31.3979H16.7191C15.9656 31.3979 15.2359 31.1036 14.7058 30.5592C14.0422 29.8776 13.1579 29.5018 12.2159 29.5018H1.80913C1.64041 29.5018 1.48576 29.6247 1.47029 29.7948C1.45342 29.9862 1.60105 30.1463 1.78663 30.1463H12.2159C12.9695 30.1463 13.6992 30.4406 14.2292 30.985C14.89 31.6666 15.7758 32.0423 16.7177 32.0423Z" fill="white"/>
<path d="M46.7456 23.4964H44.0804L44.1423 23.7894H46.8271L46.7456 23.4964Z" fill="#A34262"/>
<path d="M0.448601 17.7381H16.0981V29.5018H0.448601V17.7381Z" fill="#F8B84E"/>
<path d="M-0.000209808 15.8192H16.5449V17.7381H-0.000209808V15.8192Z" fill="#FFDB9C"/>
<path d="M0.448601 17.7381H16.0981V18.6712H0.448601V17.7381Z" fill="#EBA25D"/>
<path d="M30.1659 24.4752L39.1274 27.1971C41.1098 27.7987 42.0026 30.1391 40.9383 31.9423L34.7985 42.3458L31.3104 40.7726L36.3226 31.0864L26.1154 28.9189C24.1415 28.4988 22.9774 26.4127 23.6396 24.4766H30.1659V24.4752Z" fill="#454F6B"/>
<path d="M31.7631 41.4972L32.0247 41.0941L34.0078 41.9874L33.5409 42.8508L31.3314 42.2204C31.4664 41.9746 31.6084 41.733 31.7631 41.4972Z" fill="#F5B087"/>
<path d="M32.3071 43.235L32.4913 43.7124L32.2452 43.5365C32.1482 43.4665 32.0314 43.4293 31.9119 43.4293H30.7544C30.9232 43.0148 31.1144 42.6118 31.331 42.2201L33.5405 42.8505L33.4069 43.0977H32.3999C32.3296 43.0977 32.2818 43.1692 32.3071 43.235Z" fill="white"/>
<path d="M34.8484 45.292H30.1666L30.2524 44.9563C30.3845 44.4347 30.5546 43.9261 30.7571 43.4303H31.9142C32.0337 43.4303 32.1504 43.4674 32.2474 43.5374L32.4934 43.7132L32.3093 43.2359C32.284 43.1702 32.3318 43.0988 32.4021 43.0988H33.4087L34.1525 43.8089C34.4899 44.1304 34.9342 44.3104 35.3967 44.3104H35.9043C36.4006 44.3104 36.8336 44.5919 37.0571 45.0077L36.0912 45.182C35.6793 45.2549 35.2646 45.292 34.8484 45.292Z" fill="#422C4F"/>
<path d="M34.8485 45.2921C35.2647 45.2921 35.6795 45.2549 36.0901 45.1806L37.056 45.0063C37.1502 45.182 37.2079 45.3835 37.2163 45.5964L35.7414 45.7322C35.508 45.7536 35.2746 45.7651 35.0398 45.7651H30.0483L30.1678 45.2921H34.8485Z" fill="white"/>
<path d="M32.0247 41.0941L34.0063 41.9874L33.7926 42.3834L31.6337 41.7001L32.0247 41.0941Z" fill="#422C4F"/>
<path d="M32.1562 8.36061L32.4275 6.79603C32.5189 6.27307 32.966 5.89014 33.489 5.89014H35.0327L34.8949 6.63314C34.7951 7.17038 34.805 7.72335 34.9231 8.25774L34.9905 8.56065C35.0187 8.68925 34.9231 8.81213 34.7937 8.81213H34.4816C34.0823 10.2781 32.3291 10.904 31.1115 9.95235L29.1966 8.45778L30.2131 9.17934C30.9597 9.71088 31.9973 9.27365 32.1562 8.36061Z" fill="#F5B087"/>
<path d="M35.1323 5.35576L35.0325 5.89158H33.4888C32.9658 5.89158 32.5173 6.27308 32.4273 6.79747L32.1559 8.36205C31.9971 9.27509 30.9609 9.71232 30.2129 9.18078L29.1964 8.45922V5.35576H35.1323Z" fill="#E09069"/>
<path d="M29.1955 8.45921L30.1532 8.59498L31.1108 9.9541L30.8563 10.6973L29.1955 8.45921Z" fill="#E09069"/>
<path d="M27.8555 10.524L29.1954 8.45921L30.856 10.6969L30.4215 11.9644L27.8555 10.524Z" fill="#F5B087"/>
<path d="M33.8803 7.1265C33.8508 7.30535 33.9043 7.46417 34 7.47991C34.0957 7.49565 34.1957 7.36401 34.2253 7.18373C34.2548 7.00488 34.2013 6.84607 34.1056 6.83033C34.0099 6.81459 33.9099 6.94622 33.8803 7.1265Z" fill="#422C4F"/>
<path d="M34.3356 6.49644C34.1765 6.40487 33.9977 6.41775 33.8471 6.51934C33.6979 6.61949 33.5599 6.37626 33.7077 6.2761C33.94 6.12014 34.2357 6.11442 34.4764 6.25321C34.6299 6.34192 34.4905 6.58515 34.3356 6.49644Z" fill="#422C4F"/>
<path d="M33.958 8.21921L33.6487 8.32781C33.196 8.48642 32.7053 8.50214 32.2441 8.37068L31.4722 8.14919L31.6536 7.78195L32.2441 7.94914C32.7053 8.07917 33.196 8.06488 33.6487 7.90627L33.958 7.79767C34.2322 7.70193 34.512 7.62762 34.7975 7.57761L34.9085 7.55761L35.0098 7.96628L34.7975 7.99915C34.5134 8.04916 34.2322 8.12347 33.958 8.21921Z" fill="white"/>
<path d="M31.4716 8.14922L32.2436 8.37073C32.7049 8.50079 33.1957 8.48649 33.6485 8.32786L33.9578 8.21924C34.232 8.12349 34.5119 8.04918 34.7974 7.99916L35.0097 7.96629L35.0434 8.10063C35.1011 8.33501 35.0884 8.58082 35.0083 8.80662L34.8353 9.29253C34.5316 10.1443 33.7553 10.7303 32.8652 10.7803C32.3111 10.8117 31.7641 10.6302 31.3338 10.2729L30.6897 9.73843L31.4716 8.14922Z" fill="#0ACDC4"/>
<path opacity="0.3" d="M32.2275 7.94486L32.1558 8.36215C32.0405 9.03097 31.4527 9.44255 30.8537 9.40682L31.6538 7.78194L32.2275 7.94486Z" fill="#422C4F"/>
<path d="M31.1095 8.80217L31.6945 10.4971C31.7142 10.5529 31.6692 10.61 31.6102 10.6029C31.1728 10.55 30.7861 10.2899 30.5653 9.90261L29.8228 8.59494L31.1095 8.80217Z" fill="#454F6B"/>
<path d="M31.6809 6.21344L31.359 8.06964C31.3041 8.38687 30.9793 8.57549 30.6827 8.46403L27.5064 7.26943V4.95883C27.5064 2.58534 29.4003 0.660553 31.7358 0.660553C34.029 0.660553 35.8934 2.51533 35.9609 4.82879H33.3035C32.5049 4.82879 31.8201 5.41323 31.6809 6.21344Z" fill="#F84671"/>
<path d="M30.6833 8.46373C30.98 8.57518 31.3048 8.38656 31.3596 8.06934L31.6816 6.21313C31.8208 5.41292 32.5056 4.82848 33.3056 4.82848H35.963C35.9644 4.87135 35.9658 4.91422 35.9658 4.95852V5.35577H33.4462C32.8303 5.35577 32.3045 5.80445 32.1976 6.42033L31.8771 8.26224C31.7632 8.91956 31.0728 9.29537 30.4696 9.02673L27.8094 7.8407C27.6252 7.75783 27.5057 7.57349 27.5057 7.36915V7.2677L30.6833 8.46373Z" fill="#C8274E"/>
<path d="M30.9443 23.4844L30.1668 20.0278L31.2832 13.8119C31.4168 13.0717 31.0695 12.3287 30.4213 11.9643L27.8553 10.5239C27.5192 10.3353 27.103 10.3781 26.812 10.6325C24.6973 12.4744 23.3742 15.0822 23.1254 17.9015L22.6417 23.363C22.5883 23.9603 23.0522 24.4761 23.6428 24.4761H30.1668C30.68 24.4761 31.0596 23.9917 30.9443 23.4844Z" fill="#5DABFF"/>
<path d="M27.0748 13.1072L27.0538 13.1915C26.7838 14.2475 26.982 15.3705 27.595 16.2664L30.1679 20.0272L30.6909 17.1137L27.0748 13.1072Z" fill="#5297F4"/>
<path d="M30.6609 11.2626L31.3677 11.6332L30.6609 12.4087L30.4202 11.9651L30.6609 11.2626Z" fill="#5DABFF"/>
<path d="M31.3675 11.6327L31.5278 12.9551L30.8005 12.2546L31.3675 11.6327Z" fill="#5297F4"/>
<path d="M27.4393 10.4068L28.1873 9.73659L30.856 11.2198L30.4918 12.7874L27.4393 10.4068Z" fill="#6BC5FF"/>
<path d="M42.5065 21.4103H44.4977C44.8689 21.4103 45.1685 21.7161 45.1685 22.092V23.3568C45.1685 23.7341 44.8675 24.0385 44.4977 24.0385H42.8861V23.5354C42.401 23.5354 41.9341 23.3396 41.591 22.9909L41.3491 22.7451L42.5065 21.4103Z" fill="#F5B087"/>
<path d="M42.5073 21.4103L41.3502 22.7448L36.3802 21.5703L37.0677 19.7014L42.5073 21.4103Z" fill="#F5B087"/>
<path d="M37.0676 19.7014L37.3094 19.7786L37.3882 21.8094L36.3799 21.5707L37.0676 19.7014Z" fill="#E09069"/>
<path d="M27.5503 12.4743C28.2056 11.9513 29.1504 12.0456 29.6946 12.6858L34.8505 18.7645L35.7827 19.0832L34.9166 21.4366L34.4273 21.3295C33.654 21.1594 32.9481 20.7565 32.4026 20.1734L27.383 14.8135C26.7489 14.1361 26.8262 13.0516 27.5503 12.4743Z" fill="#5DABFF"/>
<path d="M34.888 21.5119L34.9161 21.4376L35.7823 19.0841L35.868 18.8512C35.9172 18.7183 36.0635 18.6497 36.1942 18.6997L37.0463 19.0241C37.177 19.0741 37.2445 19.2227 37.1953 19.3556L37.1264 19.5442L36.3165 21.7448L36.2167 22.0163C36.1675 22.1492 36.0213 22.2178 35.8905 22.1678L35.0385 21.8434C34.9049 21.7934 34.8388 21.6448 34.888 21.5119Z" fill="#5297F4"/>
<path d="M29.3684 12.9387C28.889 12.3728 28.0889 12.2214 27.4407 12.5714C27.4759 12.5372 27.5124 12.5043 27.5518 12.4728C28.207 11.9499 29.1519 12.0442 29.696 12.6843L34.852 18.7631L35.7842 19.0817L35.645 19.459L34.5989 19.1003L29.3684 12.9387Z" fill="#6BC5FF"/>
<path d="M42.233 23.5323C42.0811 23.2508 41.7352 23.1479 41.4582 23.3022L41.4568 23.3036C41.468 23.2965 41.4778 23.2865 41.4905 23.2808L42.7674 22.5705C43.0444 22.4161 43.3903 22.519 43.5422 22.8006C43.6941 23.0821 43.5928 23.4337 43.3158 23.588L42.0417 24.2983C42.2892 24.134 42.3778 23.801 42.233 23.5323Z" fill="#422C4F"/>
<path d="M41.7641 24.371C41.5628 24.371 41.3657 24.2622 41.2629 24.0691C41.1179 23.8001 41.2066 23.4681 41.4558 23.3036L41.4572 23.3021C41.7345 23.1476 42.0808 23.2506 42.2329 23.5325C42.3779 23.8015 42.2892 24.1334 42.04 24.298L42.0386 24.2994C41.9499 24.3481 41.857 24.371 41.7641 24.371Z" fill="#495375"/>
</g>
<defs>
<clipPath id="clip0_397_2117">
<rect width="60" height="53.9504" fill="white" transform="matrix(-1 0 0 1 59.9995 0.660553)"/>
</clipPath>
</defs>
</svg>
