<svg width="40" height="40" viewBox="0 0 40 40" fill="none" xmlns="http://www.w3.org/2000/svg">
<circle r="19.5" transform="matrix(-1 0 0 1 20 20)" stroke="#003055" stroke-opacity="0.2"/>
<path d="M23.6365 12.2729L15.9092 20.0002L23.6365 27.7275" stroke="#003055" stroke-linecap="round" stroke-linejoin="round"/>
</svg>
