<svg width="40" height="40" viewBox="0 0 40 40" fill="none" xmlns="http://www.w3.org/2000/svg">
<path d="M19.9998 0C8.97195 0 0 8.97205 0 20C0 31.0271 8.97195 40 19.9998 40C31.0268 40 39.9996 31.0271 39.9996 20C39.9996 8.97205 31.0284 0 19.9998 0ZM28.9218 15.4225C28.9306 15.6207 28.9355 15.8205 28.9355 16.0203C28.9355 22.1034 24.3065 29.1154 15.8373 29.1154C13.2376 29.1154 10.8176 28.3558 8.78102 27.0491C9.14112 27.0918 9.50767 27.1135 9.87905 27.1135C12.0364 27.1135 14.0206 26.3772 15.5964 25.143C13.5824 25.1059 11.8818 23.7751 11.2961 21.9455C11.5764 21.9987 11.8657 22.0285 12.1613 22.0285C12.581 22.0285 12.9887 21.9737 13.3745 21.8682C11.2687 21.4461 9.68248 19.5859 9.68248 17.3544C9.68248 17.3351 9.68249 17.3149 9.68329 17.2964C10.3036 17.6404 11.0133 17.8482 11.7674 17.8716C10.5332 17.0475 9.72035 15.6376 9.72035 14.0409C9.72035 13.1966 9.94672 12.4055 10.3431 11.7256C12.6124 14.5114 16.0056 16.3433 19.8306 16.5367C19.7517 16.1991 19.7122 15.8487 19.7122 15.487C19.7122 12.9453 21.7729 10.8838 24.3146 10.8838C25.639 10.8838 26.8337 11.4428 27.6747 12.3371C28.7244 12.1308 29.7072 11.749 30.599 11.2197C30.2526 12.2952 29.5252 13.1966 28.5722 13.767C29.5042 13.6558 30.3936 13.4093 31.2161 13.0428C30.6023 13.9644 29.8216 14.7756 28.9218 15.4225Z" fill="#08AEEE"/>
</svg>
